timeStamp,elapsed,label,responseCode,responseMessage,threadName,dataType,success,failureMessage,bytes,sentBytes,grpThreads,allThreads,URL,Latency,IdleTime,Connect
1562849176706,685,Login,200,OK,Thread Group 1-1,text,true,,3054,325,1,1,http://api.tournaments.org.in/tos/Login,683,0,464
1562849177426,259,Login,200,OK,Thread Group 1-1,text,true,,3060,325,1,1,http://api.tournaments.org.in/tos/Login,258,0,67
1562849177694,640,Login,200,OK,Thread Group 1-1,text,true,,3060,325,1,1,http://api.tournaments.org.in/tos/Login,640,0,496
1562849178337,217,Login,200,OK,Thread Group 1-1,text,true,,3067,325,1,1,http://api.tournaments.org.in/tos/Login,217,0,68
1562849178558,272,Login,200,OK,Thread Group 1-1,text,true,,3060,325,1,1,http://api.tournaments.org.in/tos/Login,271,0,88
1562849178832,215,Login,200,OK,Thread Group 1-1,text,true,,3054,325,1,1,http://api.tournaments.org.in/tos/Login,215,0,67
1562849179051,151,Login,200,OK,Thread Group 1-1,text,true,,3060,325,1,1,http://api.tournaments.org.in/tos/Login,150,0,36
1562849179205,170,Login,200,OK,Thread Group 1-1,text,true,,3054,325,1,1,http://api.tournaments.org.in/tos/Login,170,0,39
1562849179380,260,Login,200,OK,Thread Group 1-1,text,true,,3054,325,1,1,http://api.tournaments.org.in/tos/Login,260,0,109
1562849179656,146,Login,200,OK,Thread Group 1-1,text,true,,3054,325,1,1,http://api.tournaments.org.in/tos/Login,146,0,35
1562849179805,178,Login,200,OK,Thread Group 1-1,text,true,,3054,325,1,1,http://api.tournaments.org.in/tos/Login,178,0,69
1562849179986,375,Login,200,OK,Thread Group 1-1,text,true,,3067,325,1,1,http://api.tournaments.org.in/tos/Login,374,0,69
1562849180365,148,Login,200,OK,Thread Group 1-1,text,true,,3054,325,1,1,http://api.tournaments.org.in/tos/Login,148,0,33
1562849180517,334,Login,200,OK,Thread Group 1-1,text,true,,3067,325,1,1,http://api.tournaments.org.in/tos/Login,324,0,62
1562849180854,223,Login,200,OK,Thread Group 1-1,text,true,,3054,325,1,1,http://api.tournaments.org.in/tos/Login,222,0,71
1562849181081,357,Login,200,OK,Thread Group 1-1,text,true,,3067,325,1,1,http://api.tournaments.org.in/tos/Login,356,0,184
1562849181443,146,Login,200,OK,Thread Group 1-1,text,true,,3067,325,1,1,http://api.tournaments.org.in/tos/Login,145,0,34
1562849181594,160,Login,200,OK,Thread Group 1-1,text,true,,3060,325,1,1,http://api.tournaments.org.in/tos/Login,160,0,34
1562849181760,202,Login,200,OK,Thread Group 1-1,text,true,,3060,325,1,1,http://api.tournaments.org.in/tos/Login,202,0,65
1562849181966,600,Login,200,OK,Thread Group 1-1,text,true,,3054,325,1,1,http://api.tournaments.org.in/tos/Login,599,0,69
1562849182570,167,Login,200,OK,Thread Group 1-1,text,true,,3067,325,1,1,http://api.tournaments.org.in/tos/Login,165,0,39
1562849182741,133,Login,200,OK,Thread Group 1-1,text,true,,3054,325,1,1,http://api.tournaments.org.in/tos/Login,132,0,35
1562849182878,154,Login,200,OK,Thread Group 1-1,text,true,,3060,325,1,1,http://api.tournaments.org.in/tos/Login,154,0,37
1562849183036,157,Login,200,OK,Thread Group 1-1,text,true,,3054,325,1,1,http://api.tournaments.org.in/tos/Login,157,0,36
1562849183197,203,Login,200,OK,Thread Group 1-1,text,true,,3054,325,1,1,http://api.tournaments.org.in/tos/Login,202,0,65
1562849183403,176,Login,200,OK,Thread Group 1-1,text,true,,3054,325,1,1,http://api.tournaments.org.in/tos/Login,176,0,47
1562849183586,149,Login,200,OK,Thread Group 1-1,text,true,,3054,325,1,1,http://api.tournaments.org.in/tos/Login,148,0,35
1562849183739,207,Login,200,OK,Thread Group 1-1,text,true,,3054,325,1,1,http://api.tournaments.org.in/tos/Login,206,0,64
1562849183950,215,Login,200,OK,Thread Group 1-1,text,true,,3061,325,1,1,http://api.tournaments.org.in/tos/Login,215,0,68
1562849184168,254,Login,200,OK,Thread Group 1-1,text,true,,3060,325,1,1,http://api.tournaments.org.in/tos/Login,254,0,90
1562849184427,201,Login,200,OK,Thread Group 1-1,text,true,,3054,325,1,1,http://api.tournaments.org.in/tos/Login,201,0,64
1562849184632,211,Login,200,OK,Thread Group 1-1,text,true,,3067,325,1,1,http://api.tournaments.org.in/tos/Login,211,0,64
1562849184849,221,Login,200,OK,Thread Group 1-1,text,true,,3061,325,1,1,http://api.tournaments.org.in/tos/Login,219,0,64
1562849185074,159,Login,200,OK,Thread Group 1-1,text,true,,3061,325,1,1,http://api.tournaments.org.in/tos/Login,158,0,40
1562849185238,176,Login,200,OK,Thread Group 1-1,text,true,,3054,325,1,1,http://api.tournaments.org.in/tos/Login,175,0,54
1562849185418,202,Login,200,OK,Thread Group 1-1,text,true,,3054,325,1,1,http://api.tournaments.org.in/tos/Login,201,0,64
1562849185624,264,Login,200,OK,Thread Group 1-1,text,true,,3061,325,1,1,http://api.tournaments.org.in/tos/Login,264,0,94
1562849185893,205,Login,200,OK,Thread Group 1-1,text,true,,3054,325,1,1,http://api.tournaments.org.in/tos/Login,201,0,62
1562849186102,159,Login,200,OK,Thread Group 1-1,text,true,,3061,325,1,1,http://api.tournaments.org.in/tos/Login,159,0,42
1562849186265,142,Login,200,OK,Thread Group 1-1,text,true,,3054,325,1,1,http://api.tournaments.org.in/tos/Login,142,0,36
1562849186410,210,Login,200,OK,Thread Group 1-1,text,true,,3054,325,1,1,http://api.tournaments.org.in/tos/Login,210,0,66
1562849186624,151,Login,200,OK,Thread Group 1-1,text,true,,3054,325,1,1,http://api.tournaments.org.in/tos/Login,150,0,34
1562849186779,153,Login,200,OK,Thread Group 1-1,text,true,,3060,325,1,1,http://api.tournaments.org.in/tos/Login,153,0,34
1562849186937,219,Login,200,OK,Thread Group 1-1,text,true,,3054,325,1,1,http://api.tournaments.org.in/tos/Login,218,0,73
1562849187160,212,Login,200,OK,Thread Group 1-1,text,true,,3060,325,1,1,http://api.tournaments.org.in/tos/Login,212,0,64
1562849187376,1124,Login,200,OK,Thread Group 1-1,text,true,,3054,325,1,1,http://api.tournaments.org.in/tos/Login,1124,0,521
1562849188503,237,Login,200,OK,Thread Group 1-1,text,true,,3054,325,1,1,http://api.tournaments.org.in/tos/Login,237,0,65
1562849188743,258,Login,200,OK,Thread Group 1-1,text,true,,3061,325,1,1,http://api.tournaments.org.in/tos/Login,256,0,110
1562849189007,255,Login,200,OK,Thread Group 1-1,text,true,,3054,325,1,1,http://api.tournaments.org.in/tos/Login,255,0,92
1562849189266,234,Login,200,OK,Thread Group 1-1,text,true,,3054,325,1,1,http://api.tournaments.org.in/tos/Login,233,0,80
1562849189504,210,Login,200,OK,Thread Group 1-1,text,true,,3054,325,1,1,http://api.tournaments.org.in/tos/Login,209,0,64
1562849189718,179,Login,200,OK,Thread Group 1-1,text,true,,3054,325,1,1,http://api.tournaments.org.in/tos/Login,178,0,49
1562849189900,152,Login,200,OK,Thread Group 1-1,text,true,,3061,325,1,1,http://api.tournaments.org.in/tos/Login,152,0,34
1562849190060,159,Login,200,OK,Thread Group 1-1,text,true,,3054,325,1,1,http://api.tournaments.org.in/tos/Login,159,0,42
1562849190223,147,Login,200,OK,Thread Group 1-1,text,true,,3054,325,1,1,http://api.tournaments.org.in/tos/Login,146,0,40
1562849190374,215,Login,200,OK,Thread Group 1-1,text,true,,3054,325,1,1,http://api.tournaments.org.in/tos/Login,214,0,68
1562849190593,202,Login,200,OK,Thread Group 1-1,text,true,,3054,325,1,1,http://api.tournaments.org.in/tos/Login,202,0,59
1562849190799,151,Login,200,OK,Thread Group 1-1,text,true,,3054,325,1,1,http://api.tournaments.org.in/tos/Login,151,0,38
1562849190954,237,Login,200,OK,Thread Group 1-1,text,true,,3061,325,1,1,http://api.tournaments.org.in/tos/Login,237,0,66
1562849191195,276,Login,200,OK,Thread Group 1-1,text,true,,3054,325,1,1,http://api.tournaments.org.in/tos/Login,276,0,97
1562849191476,264,Login,200,OK,Thread Group 1-1,text,true,,3060,325,1,1,http://api.tournaments.org.in/tos/Login,264,0,92
1562849191745,147,Login,200,OK,Thread Group 1-1,text,true,,3054,325,1,1,http://api.tournaments.org.in/tos/Login,146,0,34
1562849191896,273,Login,200,OK,Thread Group 1-1,text,true,,3054,325,1,1,http://api.tournaments.org.in/tos/Login,272,0,97
1562849192173,170,Login,200,OK,Thread Group 1-1,text,true,,3054,325,1,1,http://api.tournaments.org.in/tos/Login,170,0,36
1562849192347,705,Login,200,OK,Thread Group 1-1,text,true,,3054,325,1,1,http://api.tournaments.org.in/tos/Login,704,0,561
1562849193055,151,Login,200,OK,Thread Group 1-1,text,true,,3067,325,1,1,http://api.tournaments.org.in/tos/Login,149,0,52
1562849193210,195,Login,200,OK,Thread Group 1-1,text,true,,3067,325,1,1,http://api.tournaments.org.in/tos/Login,194,0,63
1562849193408,196,Login,200,OK,Thread Group 1-1,text,true,,3067,325,1,1,http://api.tournaments.org.in/tos/Login,195,0,65
1562849193608,144,Login,200,OK,Thread Group 1-1,text,true,,3061,325,1,1,http://api.tournaments.org.in/tos/Login,143,0,35
1562849193756,136,Login,200,OK,Thread Group 1-1,text,true,,3067,325,1,1,http://api.tournaments.org.in/tos/Login,135,0,33
1562849193896,207,Login,200,OK,Thread Group 1-1,text,true,,3061,325,1,1,http://api.tournaments.org.in/tos/Login,207,0,63
1562849194107,256,Login,200,OK,Thread Group 1-1,text,true,,3054,325,1,1,http://api.tournaments.org.in/tos/Login,255,0,95
1562849194366,201,Login,200,OK,Thread Group 1-1,text,true,,3067,325,1,1,http://api.tournaments.org.in/tos/Login,200,0,65
1562849194570,150,Login,200,OK,Thread Group 1-1,text,true,,3067,325,1,1,http://api.tournaments.org.in/tos/Login,149,0,35
1562849194725,220,Login,200,OK,Thread Group 1-1,text,true,,3067,325,1,1,http://api.tournaments.org.in/tos/Login,213,0,72
1562849194949,148,Login,200,OK,Thread Group 1-1,text,true,,3060,325,1,1,http://api.tournaments.org.in/tos/Login,148,0,34
1562849195101,168,Login,200,OK,Thread Group 1-1,text,true,,3067,325,1,1,http://api.tournaments.org.in/tos/Login,167,0,50
1562849195274,203,Login,200,OK,Thread Group 1-1,text,true,,3061,325,1,1,http://api.tournaments.org.in/tos/Login,202,0,69
1562849195480,208,Login,200,OK,Thread Group 1-1,text,true,,3061,325,1,1,http://api.tournaments.org.in/tos/Login,208,0,67
1562849195692,214,Login,200,OK,Thread Group 1-1,text,true,,3060,325,1,1,http://api.tournaments.org.in/tos/Login,214,0,78
1562849195910,153,Login,200,OK,Thread Group 1-1,text,true,,3054,325,1,1,http://api.tournaments.org.in/tos/Login,153,0,35
1562849196067,201,Login,200,OK,Thread Group 1-1,text,true,,3054,325,1,1,http://api.tournaments.org.in/tos/Login,200,0,60
1562849196272,210,Login,200,OK,Thread Group 1-1,text,true,,3054,325,1,1,http://api.tournaments.org.in/tos/Login,209,0,65
1562849196486,204,Login,200,OK,Thread Group 1-1,text,true,,3054,325,1,1,http://api.tournaments.org.in/tos/Login,204,0,65
1562849196694,210,Login,200,OK,Thread Group 1-1,text,true,,3054,325,1,1,http://api.tournaments.org.in/tos/Login,209,0,62
1562849196908,172,Login,200,OK,Thread Group 1-1,text,true,,3061,325,1,1,http://api.tournaments.org.in/tos/Login,171,0,34
1562849197083,228,Login,200,OK,Thread Group 1-1,text,true,,3060,325,1,1,http://api.tournaments.org.in/tos/Login,227,0,77
1562849197315,587,Login,200,OK,Thread Group 1-1,text,true,,3060,325,1,1,http://api.tournaments.org.in/tos/Login,587,0,78
1562849197905,161,Login,200,OK,Thread Group 1-1,text,true,,3054,325,1,1,http://api.tournaments.org.in/tos/Login,159,0,48
1562849198069,204,Login,200,OK,Thread Group 1-1,text,true,,3054,325,1,1,http://api.tournaments.org.in/tos/Login,204,0,59
1562849198277,165,Login,200,OK,Thread Group 1-1,text,true,,3063,326,1,1,http://api.tournaments.org.in/tos/Login,164,0,40
1562849198445,233,Login,200,OK,Thread Group 1-1,text,true,,3063,326,1,1,http://api.tournaments.org.in/tos/Login,232,0,55
1562849198682,150,Login,200,OK,Thread Group 1-1,text,true,,3063,326,1,1,http://api.tournaments.org.in/tos/Login,150,0,43
1562849198836,237,Login,200,OK,Thread Group 1-1,text,true,,3069,326,1,1,http://api.tournaments.org.in/tos/Login,237,0,85
1562849199077,265,Login,200,OK,Thread Group 1-1,text,true,,3069,326,1,1,http://api.tournaments.org.in/tos/Login,265,0,72
1562849199345,353,Login,200,OK,Thread Group 1-1,text,true,,3063,326,1,1,http://api.tournaments.org.in/tos/Login,353,0,180
1562849199702,151,Login,200,OK,Thread Group 1-1,text,true,,3069,326,1,1,http://api.tournaments.org.in/tos/Login,151,0,34
1562849199857,153,Login,200,OK,Thread Group 1-1,text,true,,3076,326,1,1,http://api.tournaments.org.in/tos/Login,153,0,38
1562849200014,149,Login,200,OK,Thread Group 1-1,text,true,,3069,326,1,1,http://api.tournaments.org.in/tos/Login,149,0,34
1562849200167,245,Login,200,OK,Thread Group 1-1,text,true,,3069,326,1,1,http://api.tournaments.org.in/tos/Login,245,0,76
1562849200415,242,Login,200,OK,Thread Group 1-1,text,true,,3063,326,1,1,http://api.tournaments.org.in/tos/Login,241,0,106
1562849200661,212,Login,200,OK,Thread Group 1-1,text,true,,3063,326,1,1,http://api.tournaments.org.in/tos/Login,212,0,65
1562849200876,149,Login,200,OK,Thread Group 1-1,text,true,,3069,326,1,1,http://api.tournaments.org.in/tos/Login,149,0,39
1562849201029,319,Login,200,OK,Thread Group 1-1,text,true,,3063,326,1,1,http://api.tournaments.org.in/tos/Login,318,0,94
1562849201351,254,Login,200,OK,Thread Group 1-1,text,true,,3063,326,1,1,http://api.tournaments.org.in/tos/Login,253,0,90
1562849201609,244,Login,200,OK,Thread Group 1-1,text,true,,3063,326,1,1,http://api.tournaments.org.in/tos/Login,243,0,73
1562849201856,346,Login,200,OK,Thread Group 1-1,text,true,,3069,326,1,1,http://api.tournaments.org.in/tos/Login,346,0,173
1562849202206,160,Login,200,OK,Thread Group 1-1,text,true,,3069,326,1,1,http://api.tournaments.org.in/tos/Login,160,0,43
1562849202370,430,Login,200,OK,Thread Group 1-1,text,true,,3069,326,1,1,http://api.tournaments.org.in/tos/Login,430,0,160
1562849202803,157,Login,200,OK,Thread Group 1-1,text,true,,3069,326,1,1,http://api.tournaments.org.in/tos/Login,157,0,39
1562849202964,645,Login,200,OK,Thread Group 1-1,text,true,,3063,326,1,1,http://api.tournaments.org.in/tos/Login,645,0,502
1562849203612,300,Login,200,OK,Thread Group 1-1,text,true,,3069,326,1,1,http://api.tournaments.org.in/tos/Login,300,0,41
1562849203916,216,Login,200,OK,Thread Group 1-1,text,true,,3063,326,1,1,http://api.tournaments.org.in/tos/Login,215,0,84
1562849204135,216,Login,200,OK,Thread Group 1-1,text,true,,3069,326,1,1,http://api.tournaments.org.in/tos/Login,215,0,77
1562849204354,372,Login,200,OK,Thread Group 1-1,text,true,,3063,326,1,1,http://api.tournaments.org.in/tos/Login,372,0,79
1562849204730,229,Login,200,OK,Thread Group 1-1,text,true,,3063,326,1,1,http://api.tournaments.org.in/tos/Login,228,0,90
1562849204963,289,Login,200,OK,Thread Group 1-1,text,true,,3063,326,1,1,http://api.tournaments.org.in/tos/Login,288,0,107
1562849205255,287,Login,200,OK,Thread Group 1-1,text,true,,3063,326,1,1,http://api.tournaments.org.in/tos/Login,286,0,174
1562849205545,226,Login,200,OK,Thread Group 1-1,text,true,,3063,326,1,1,http://api.tournaments.org.in/tos/Login,226,0,69
1562849205774,152,Login,200,OK,Thread Group 1-1,text,true,,3069,326,1,1,http://api.tournaments.org.in/tos/Login,152,0,43
1562849205930,232,Login,200,OK,Thread Group 1-1,text,true,,3063,326,1,1,http://api.tournaments.org.in/tos/Login,232,0,79
1562849206165,312,Login,200,OK,Thread Group 1-1,text,true,,3069,326,1,1,http://api.tournaments.org.in/tos/Login,312,0,92
1562849206481,274,Login,200,OK,Thread Group 1-1,text,true,,3076,326,1,1,http://api.tournaments.org.in/tos/Login,274,0,160
1562849206757,168,Login,200,OK,Thread Group 1-1,text,true,,3070,326,1,1,http://api.tournaments.org.in/tos/Login,167,0,57
1562849206928,409,Login,200,OK,Thread Group 1-1,text,true,,3070,326,1,1,http://api.tournaments.org.in/tos/Login,408,0,68
1562849207341,216,Login,200,OK,Thread Group 1-1,text,true,,3070,326,1,1,http://api.tournaments.org.in/tos/Login,216,0,82
1562849207561,224,Login,200,OK,Thread Group 1-1,text,true,,3069,326,1,1,http://api.tournaments.org.in/tos/Login,224,0,81
1562849207789,716,Login,200,OK,Thread Group 1-1,text,true,,3063,326,1,1,http://api.tournaments.org.in/tos/Login,714,0,84
1562849208511,786,Login,200,OK,Thread Group 1-1,text,true,,3076,326,1,1,http://api.tournaments.org.in/tos/Login,780,0,638
1562849209301,171,Login,200,OK,Thread Group 1-1,text,true,,3070,326,1,1,http://api.tournaments.org.in/tos/Login,170,0,33
1562849209476,199,Login,200,OK,Thread Group 1-1,text,true,,3076,326,1,1,http://api.tournaments.org.in/tos/Login,195,0,59
1562849209679,305,Login,200,OK,Thread Group 1-1,text,true,,3070,326,1,1,http://api.tournaments.org.in/tos/Login,305,0,70
1562849209988,162,Login,200,OK,Thread Group 1-1,text,true,,3070,326,1,1,http://api.tournaments.org.in/tos/Login,162,0,47
1562849210154,220,Login,200,OK,Thread Group 1-1,text,true,,3076,326,1,1,http://api.tournaments.org.in/tos/Login,217,0,70
1562849210378,288,Login,200,OK,Thread Group 1-1,text,true,,3076,326,1,1,http://api.tournaments.org.in/tos/Login,287,0,96
1562849210670,151,Login,200,OK,Thread Group 1-1,text,true,,3063,326,1,1,http://api.tournaments.org.in/tos/Login,150,0,49
1562849210825,146,Login,200,OK,Thread Group 1-1,text,true,,3076,326,1,1,http://api.tournaments.org.in/tos/Login,145,0,36
1562849210975,241,Login,200,OK,Thread Group 1-1,text,true,,3076,326,1,1,http://api.tournaments.org.in/tos/Login,240,0,97
1562849211219,214,Login,200,OK,Thread Group 1-1,text,true,,3076,326,1,1,http://api.tournaments.org.in/tos/Login,212,0,48
1562849211438,173,Login,200,OK,Thread Group 1-1,text,true,,3063,326,1,1,http://api.tournaments.org.in/tos/Login,173,0,46
1562849211613,222,Login,200,OK,Thread Group 1-1,text,true,,3076,326,1,1,http://api.tournaments.org.in/tos/Login,221,0,77
1562849211840,222,Login,200,OK,Thread Group 1-1,text,true,,3076,326,1,1,http://api.tournaments.org.in/tos/Login,220,0,67
1562849212065,145,Login,200,OK,Thread Group 1-1,text,true,,3076,326,1,1,http://api.tournaments.org.in/tos/Login,144,0,32
1562849212213,184,Login,200,OK,Thread Group 1-1,text,true,,3076,326,1,1,http://api.tournaments.org.in/tos/Login,183,0,59
1562849212400,193,Login,200,OK,Thread Group 1-1,text,true,,3076,326,1,1,http://api.tournaments.org.in/tos/Login,192,0,60
1562849212596,202,Login,200,OK,Thread Group 1-1,text,true,,3076,326,1,1,http://api.tournaments.org.in/tos/Login,201,0,63
1562849212801,141,Login,200,OK,Thread Group 1-1,text,true,,3069,326,1,1,http://api.tournaments.org.in/tos/Login,140,0,35
1562849212944,648,Login,200,OK,Thread Group 1-1,text,true,,3069,326,1,1,http://api.tournaments.org.in/tos/Login,648,0,518
1562849213595,140,Login,200,OK,Thread Group 1-1,text,true,,3069,326,1,1,http://api.tournaments.org.in/tos/Login,140,0,34
1562849213739,195,Login,200,OK,Thread Group 1-1,text,true,,3063,326,1,1,http://api.tournaments.org.in/tos/Login,194,0,64
1562849213938,204,Login,200,OK,Thread Group 1-1,text,true,,3069,326,1,1,http://api.tournaments.org.in/tos/Login,204,0,66
1562849214145,209,Login,200,OK,Thread Group 1-1,text,true,,3063,326,1,1,http://api.tournaments.org.in/tos/Login,208,0,65
1562849214357,135,Login,200,OK,Thread Group 1-1,text,true,,3069,326,1,1,http://api.tournaments.org.in/tos/Login,135,0,32
1562849214495,144,Login,200,OK,Thread Group 1-1,text,true,,3070,326,1,1,http://api.tournaments.org.in/tos/Login,144,0,34
1562849214643,171,Login,200,OK,Thread Group 1-1,text,true,,3076,326,1,1,http://api.tournaments.org.in/tos/Login,171,0,50
1562849214817,259,Login,200,OK,Thread Group 1-1,text,true,,3076,326,1,1,http://api.tournaments.org.in/tos/Login,234,0,70
1562849215079,200,Login,200,OK,Thread Group 1-1,text,true,,3063,326,1,1,http://api.tournaments.org.in/tos/Login,199,0,68
1562849215282,267,Login,200,OK,Thread Group 1-1,text,true,,3063,326,1,1,http://api.tournaments.org.in/tos/Login,267,0,92
1562849215552,249,Login,200,OK,Thread Group 1-1,text,true,,3063,326,1,1,http://api.tournaments.org.in/tos/Login,248,0,115
1562849215806,274,Login,200,OK,Thread Group 1-1,text,true,,3070,326,1,1,http://api.tournaments.org.in/tos/Login,273,0,103
1562849216084,222,Login,200,OK,Thread Group 1-1,text,true,,3063,326,1,1,http://api.tournaments.org.in/tos/Login,222,0,81
1562849216309,195,Login,200,OK,Thread Group 1-1,text,true,,3063,326,1,1,http://api.tournaments.org.in/tos/Login,195,0,61
1562849216509,151,Login,200,OK,Thread Group 1-1,text,true,,3063,326,1,1,http://api.tournaments.org.in/tos/Login,151,0,35
1562849216663,245,Login,200,OK,Thread Group 1-1,text,true,,3063,326,1,1,http://api.tournaments.org.in/tos/Login,245,0,98
1562849216916,201,Login,200,OK,Thread Group 1-1,text,true,,3063,326,1,1,http://api.tournaments.org.in/tos/Login,201,0,62
1562849217123,147,Login,200,OK,Thread Group 1-1,text,true,,3063,326,1,1,http://api.tournaments.org.in/tos/Login,147,0,35
1562849217275,206,Login,200,OK,Thread Group 1-1,text,true,,3063,326,1,1,http://api.tournaments.org.in/tos/Login,205,0,68
1562849217483,144,Login,200,OK,Thread Group 1-1,text,true,,3063,326,1,1,http://api.tournaments.org.in/tos/Login,143,0,34
1562849217630,145,Login,200,OK,Thread Group 1-1,text,true,,3063,326,1,1,http://api.tournaments.org.in/tos/Login,145,0,36
1562849217779,743,Login,200,OK,Thread Group 1-1,text,true,,3063,326,1,1,http://api.tournaments.org.in/tos/Login,743,0,123
1562849218530,300,Login,200,OK,Thread Group 1-1,text,true,,3063,326,1,1,http://api.tournaments.org.in/tos/Login,298,0,154
1562849218833,151,Login,200,OK,Thread Group 1-1,text,true,,3069,326,1,1,http://api.tournaments.org.in/tos/Login,151,0,39
1562849218988,311,Login,200,OK,Thread Group 1-1,text,true,,3063,326,1,1,http://api.tournaments.org.in/tos/Login,311,0,189
1562849219308,176,Login,200,OK,Thread Group 1-1,text,true,,3063,326,1,1,http://api.tournaments.org.in/tos/Login,174,0,58
1562849219494,286,Login,200,OK,Thread Group 1-1,text,true,,3069,326,1,1,http://api.tournaments.org.in/tos/Login,286,0,92
1562849219783,167,Login,200,OK,Thread Group 1-1,text,true,,3070,326,1,1,http://api.tournaments.org.in/tos/Login,166,0,47
1562849219953,236,Login,200,OK,Thread Group 1-1,text,true,,3063,326,1,1,http://api.tournaments.org.in/tos/Login,236,0,70
1562849220195,178,Login,200,OK,Thread Group 1-1,text,true,,3069,326,1,1,http://api.tournaments.org.in/tos/Login,178,0,53
1562849220376,175,Login,200,OK,Thread Group 1-1,text,true,,3063,326,1,1,http://api.tournaments.org.in/tos/Login,175,0,60
1562849220554,172,Login,200,OK,Thread Group 1-1,text,true,,3063,326,1,1,http://api.tournaments.org.in/tos/Login,171,0,67
1562849220729,195,Login,200,OK,Thread Group 1-1,text,true,,3069,326,1,1,http://api.tournaments.org.in/tos/Login,195,0,80
1562849220927,171,Login,200,OK,Thread Group 1-1,text,true,,3063,326,1,1,http://api.tournaments.org.in/tos/Login,171,0,57
1562849221101,205,Login,200,OK,Thread Group 1-1,text,true,,3063,326,1,1,http://api.tournaments.org.in/tos/Login,204,0,63
1562849221308,144,Login,200,OK,Thread Group 1-1,text,true,,3069,326,1,1,http://api.tournaments.org.in/tos/Login,144,0,40
1562849221459,295,Login,200,OK,Thread Group 1-1,text,true,,3063,326,1,1,http://api.tournaments.org.in/tos/Login,295,0,80
1562849221757,275,Login,200,OK,Thread Group 1-1,text,true,,3069,326,1,1,http://api.tournaments.org.in/tos/Login,275,0,49
1562849222035,233,Login,200,OK,Thread Group 1-1,text,true,,3063,326,1,1,http://api.tournaments.org.in/tos/Login,232,0,79
1562849222271,185,Login,200,OK,Thread Group 1-1,text,true,,3063,326,1,1,http://api.tournaments.org.in/tos/Login,184,0,37
1562849222459,264,Login,200,OK,Thread Group 1-1,text,true,,3063,326,1,1,http://api.tournaments.org.in/tos/Login,263,0,86
1562849222745,163,Login,200,OK,Thread Group 1-1,text,true,,3063,326,1,1,http://api.tournaments.org.in/tos/Login,163,0,45
1562849222913,242,Login,200,OK,Thread Group 1-1,text,true,,3063,326,1,1,http://api.tournaments.org.in/tos/Login,242,0,83
1562849223160,149,Login,200,OK,Thread Group 1-1,text,true,,3063,326,1,1,http://api.tournaments.org.in/tos/Login,148,0,34
1562849223316,155,Login,200,OK,Thread Group 1-1,text,true,,3063,326,1,1,http://api.tournaments.org.in/tos/Login,155,0,45
1562849223475,138,Login,200,OK,Thread Group 1-1,text,true,,3069,326,1,1,http://api.tournaments.org.in/tos/Login,138,0,34
1562849223620,419,Login,200,OK,Thread Group 1-1,text,true,,3063,326,1,1,http://api.tournaments.org.in/tos/Login,419,0,81
1562849224042,955,Login,200,OK,Thread Group 1-1,text,true,,3063,326,1,1,http://api.tournaments.org.in/tos/Login,955,0,69
1562849224999,306,Login,200,OK,Thread Group 1-1,text,true,,3069,326,1,1,http://api.tournaments.org.in/tos/Login,306,0,170
1562849225308,299,Login,200,OK,Thread Group 1-1,text,true,,3063,326,1,1,http://api.tournaments.org.in/tos/Login,298,0,103
1562849225610,189,Login,200,OK,Thread Group 1-1,text,true,,3063,326,1,1,http://api.tournaments.org.in/tos/Login,189,0,69
1562849225802,241,Login,200,OK,Thread Group 1-1,text,true,,3063,326,1,1,http://api.tournaments.org.in/tos/Login,241,0,121
1562849226046,270,Login,200,OK,Thread Group 1-1,text,true,,3063,326,1,1,http://api.tournaments.org.in/tos/Login,270,0,97
1562849226321,184,Login,200,OK,Thread Group 1-1,text,true,,3063,326,1,1,http://api.tournaments.org.in/tos/Login,183,0,72
1562849226508,170,Login,200,OK,Thread Group 1-1,text,true,,3063,326,1,1,http://api.tournaments.org.in/tos/Login,169,0,43
1562849226681,251,Login,200,OK,Thread Group 1-1,text,true,,3069,326,1,1,http://api.tournaments.org.in/tos/Login,251,0,91
1562849226935,141,Login,200,OK,Thread Group 1-1,text,true,,3069,326,1,1,http://api.tournaments.org.in/tos/Login,141,0,36
1562849227079,196,Login,200,OK,Thread Group 1-1,text,true,,3063,326,1,1,http://api.tournaments.org.in/tos/Login,196,0,68
1562849227278,159,Login,200,OK,Thread Group 1-1,text,true,,3063,326,1,1,http://api.tournaments.org.in/tos/Login,159,0,48
1562849227442,284,Login,200,OK,Thread Group 1-1,text,true,,3076,326,1,1,http://api.tournaments.org.in/tos/Login,284,0,122
1562849227730,141,Login,200,OK,Thread Group 1-1,text,true,,3069,326,1,1,http://api.tournaments.org.in/tos/Login,141,0,35
1562849227875,419,Login,200,OK,Thread Group 1-1,text,true,,3063,326,1,1,http://api.tournaments.org.in/tos/Login,419,0,58
1562849228298,1240,Login,200,OK,Thread Group 1-1,text,true,,3063,326,1,1,http://api.tournaments.org.in/tos/Login,1240,0,1093
1562849229541,654,Login,200,OK,Thread Group 1-1,text,true,,3063,326,1,1,http://api.tournaments.org.in/tos/Login,654,0,375
1562849230198,273,Login,200,OK,Thread Group 1-1,text,true,,3076,326,1,1,http://api.tournaments.org.in/tos/Login,272,0,73
1562849230474,250,Login,200,OK,Thread Group 1-1,text,true,,3076,326,1,1,http://api.tournaments.org.in/tos/Login,248,0,36
1562849230727,425,Login,200,OK,Thread Group 1-1,text,true,,3063,326,1,1,http://api.tournaments.org.in/tos/Login,424,0,35
1562849231155,152,Login,200,OK,Thread Group 1-1,text,true,,3069,326,1,1,http://api.tournaments.org.in/tos/Login,152,0,37
1562849231310,252,Login,200,OK,Thread Group 1-1,text,true,,3069,326,1,1,http://api.tournaments.org.in/tos/Login,252,0,91
1562849231565,169,Login,200,OK,Thread Group 1-1,text,true,,3070,326,1,1,http://api.tournaments.org.in/tos/Login,169,0,53
1562849231739,373,Login,200,OK,Thread Group 1-1,text,true,,3063,326,1,1,http://api.tournaments.org.in/tos/Login,372,0,72
1562849232114,173,Login,200,OK,Thread Group 1-1,text,true,,3063,326,1,1,http://api.tournaments.org.in/tos/Login,173,0,58
1562849232290,233,Login,200,OK,Thread Group 1-1,text,true,,3063,326,1,1,http://api.tournaments.org.in/tos/Login,233,0,51
1562849232525,328,Login,200,OK,Thread Group 1-1,text,true,,3063,326,1,1,http://api.tournaments.org.in/tos/Login,328,0,77
1562849232856,215,Login,200,OK,Thread Group 1-1,text,true,,3070,326,1,1,http://api.tournaments.org.in/tos/Login,215,0,73
1562849233073,801,Login,200,OK,Thread Group 1-1,text,true,,3063,326,1,1,http://api.tournaments.org.in/tos/Login,800,0,70
1562849233877,253,Login,200,OK,Thread Group 1-1,text,true,,3063,326,1,1,http://api.tournaments.org.in/tos/Login,252,0,92
1562849234134,210,Login,200,OK,Thread Group 1-1,text,true,,3063,326,1,1,http://api.tournaments.org.in/tos/Login,210,0,70
1562849234347,200,Login,200,OK,Thread Group 1-1,text,true,,3069,326,1,1,http://api.tournaments.org.in/tos/Login,200,0,67
1562849234550,146,Login,200,OK,Thread Group 1-1,text,true,,3063,326,1,1,http://api.tournaments.org.in/tos/Login,146,0,39
1562849234700,213,Login,200,OK,Thread Group 1-1,text,true,,3069,326,1,1,http://api.tournaments.org.in/tos/Login,212,0,66
1562849234916,241,Login,200,OK,Thread Group 1-1,text,true,,3069,326,1,1,http://api.tournaments.org.in/tos/Login,241,0,61
1562849235160,168,Login,200,OK,Thread Group 1-1,text,true,,3063,326,1,1,http://api.tournaments.org.in/tos/Login,168,0,48
1562849235331,136,Login,200,OK,Thread Group 1-1,text,true,,3063,326,1,1,http://api.tournaments.org.in/tos/Login,135,0,32
1562849235472,146,Login,200,OK,Thread Group 1-1,text,true,,3063,326,1,1,http://api.tournaments.org.in/tos/Login,146,0,39
1562849235622,258,Login,200,OK,Thread Group 1-1,text,true,,3063,326,1,1,http://api.tournaments.org.in/tos/Login,257,0,65
1562849235883,281,Login,200,OK,Thread Group 1-1,text,true,,3069,326,1,1,http://api.tournaments.org.in/tos/Login,281,0,167
1562849236167,331,Login,200,OK,Thread Group 1-1,text,true,,3069,326,1,1,http://api.tournaments.org.in/tos/Login,330,0,169
1562849236501,145,Login,200,OK,Thread Group 1-1,text,true,,3063,326,1,1,http://api.tournaments.org.in/tos/Login,144,0,38
1562849236649,211,Login,200,OK,Thread Group 1-1,text,true,,3063,326,1,1,http://api.tournaments.org.in/tos/Login,210,0,64
1562849236863,245,Login,200,OK,Thread Group 1-1,text,true,,3069,326,1,1,http://api.tournaments.org.in/tos/Login,245,0,61
1562849237111,243,Login,200,OK,Thread Group 1-1,text,true,,3063,326,1,1,http://api.tournaments.org.in/tos/Login,243,0,105
1562849237357,284,Login,200,OK,Thread Group 1-1,text,true,,3069,326,1,1,http://api.tournaments.org.in/tos/Login,284,0,65
1562849237644,228,Login,200,OK,Thread Group 1-1,text,true,,3070,326,1,1,http://api.tournaments.org.in/tos/Login,228,0,78
1562849237875,145,Login,200,OK,Thread Group 1-1,text,true,,3069,326,1,1,http://api.tournaments.org.in/tos/Login,144,0,38
1562849238024,147,Login,200,OK,Thread Group 1-1,text,true,,3063,326,1,1,http://api.tournaments.org.in/tos/Login,147,0,36
1562849238175,209,Login,200,OK,Thread Group 1-1,text,true,,3063,326,1,1,http://api.tournaments.org.in/tos/Login,208,0,48
1562849238387,149,Login,200,OK,Thread Group 1-1,text,true,,3076,326,1,1,http://api.tournaments.org.in/tos/Login,149,0,35
1562849238541,199,Login,200,OK,Thread Group 1-1,text,true,,3076,326,1,1,http://api.tournaments.org.in/tos/Login,196,0,47
1562849238743,142,Login,200,OK,Thread Group 1-1,text,true,,3076,326,1,1,http://api.tournaments.org.in/tos/Login,141,0,35
1562849238889,232,Login,200,OK,Thread Group 1-1,text,true,,3070,326,1,1,http://api.tournaments.org.in/tos/Login,231,0,66
1562849239124,208,Login,200,OK,Thread Group 1-1,text,true,,3076,326,1,1,http://api.tournaments.org.in/tos/Login,207,0,69
1562849239335,164,Login,200,OK,Thread Group 1-1,text,true,,3069,326,1,1,http://api.tournaments.org.in/tos/Login,164,0,39
1562849239503,643,Login,200,OK,Thread Group 1-1,text,true,,3063,326,1,1,http://api.tournaments.org.in/tos/Login,643,0,48
1562849240150,346,Login,200,OK,Thread Group 1-1,text,true,,3063,326,1,1,http://api.tournaments.org.in/tos/Login,346,0,208
1562849240500,142,Login,200,OK,Thread Group 1-1,text,true,,3070,326,1,1,http://api.tournaments.org.in/tos/Login,142,0,32
1562849240646,244,Login,200,OK,Thread Group 1-1,text,true,,3076,326,1,1,http://api.tournaments.org.in/tos/Login,243,0,77
1562849240894,187,Login,200,OK,Thread Group 1-1,text,true,,3076,326,1,1,http://api.tournaments.org.in/tos/Login,186,0,53
1562849241087,778,Login,200,OK,Thread Group 1-1,text,true,,3076,326,1,1,http://api.tournaments.org.in/tos/Login,777,0,99
1562849241870,295,Login,200,OK,Thread Group 1-1,text,true,,3069,326,1,1,http://api.tournaments.org.in/tos/Login,295,0,125
1562849242169,205,Login,200,OK,Thread Group 1-1,text,true,,3069,326,1,1,http://api.tournaments.org.in/tos/Login,205,0,62
1562849242378,233,Login,200,OK,Thread Group 1-1,text,true,,3063,326,1,1,http://api.tournaments.org.in/tos/Login,233,0,81
1562849242615,236,Login,200,OK,Thread Group 1-1,text,true,,3063,326,1,1,http://api.tournaments.org.in/tos/Login,236,0,92
1562849242855,216,Login,200,OK,Thread Group 1-1,text,true,,3069,326,1,1,http://api.tournaments.org.in/tos/Login,216,0,33
1562849243074,217,Login,200,OK,Thread Group 1-1,text,true,,3063,326,1,1,http://api.tournaments.org.in/tos/Login,216,0,72
1562849243294,352,Login,200,OK,Thread Group 1-1,text,true,,3063,326,1,1,http://api.tournaments.org.in/tos/Login,352,0,229
1562849243649,228,Login,200,OK,Thread Group 1-1,text,true,,3070,326,1,1,http://api.tournaments.org.in/tos/Login,228,0,63
1562849243880,206,Login,200,OK,Thread Group 1-1,text,true,,3070,326,1,1,http://api.tournaments.org.in/tos/Login,206,0,65
1562849244089,236,Login,200,OK,Thread Group 1-1,text,true,,3069,326,1,1,http://api.tournaments.org.in/tos/Login,236,0,93
1562849244329,560,Login,200,OK,Thread Group 1-1,text,true,,3076,326,1,1,http://api.tournaments.org.in/tos/Login,560,0,428
1562849244895,164,Login,200,OK,Thread Group 1-1,text,true,,3063,326,1,1,http://api.tournaments.org.in/tos/Login,163,0,54
1562849245062,171,Login,200,OK,Thread Group 1-1,text,true,,3063,326,1,1,http://api.tournaments.org.in/tos/Login,170,0,45
1562849245237,137,Login,200,OK,Thread Group 1-1,text,true,,3063,326,1,1,http://api.tournaments.org.in/tos/Login,137,0,35
1562849245377,221,Login,200,OK,Thread Group 1-1,text,true,,3063,326,1,1,http://api.tournaments.org.in/tos/Login,220,0,68
1562849245601,198,Login,200,OK,Thread Group 1-1,text,true,,3063,326,1,1,http://api.tournaments.org.in/tos/Login,198,0,59
1562849245802,296,Login,200,OK,Thread Group 1-1,text,true,,3069,326,1,1,http://api.tournaments.org.in/tos/Login,296,0,78
1562849246102,194,Login,200,OK,Thread Group 1-1,text,true,,3063,326,1,1,http://api.tournaments.org.in/tos/Login,193,0,52
1562849246299,213,Login,200,OK,Thread Group 1-1,text,true,,3063,326,1,1,http://api.tournaments.org.in/tos/Login,212,0,61
1562849246515,266,Login,200,OK,Thread Group 1-1,text,true,,3063,326,1,1,http://api.tournaments.org.in/tos/Login,265,0,88
1562849246784,186,Login,200,OK,Thread Group 1-1,text,true,,3069,326,1,1,http://api.tournaments.org.in/tos/Login,186,0,72
1562849246973,225,Login,200,OK,Thread Group 1-1,text,true,,3063,326,1,1,http://api.tournaments.org.in/tos/Login,224,0,81
1562849247201,302,Login,200,OK,Thread Group 1-1,text,true,,3063,326,1,1,http://api.tournaments.org.in/tos/Login,302,0,131
1562849247506,224,Login,200,OK,Thread Group 1-1,text,true,,3069,326,1,1,http://api.tournaments.org.in/tos/Login,224,0,60
1562849247733,1652,Login,200,OK,Thread Group 1-1,text,true,,3076,326,1,1,http://api.tournaments.org.in/tos/Login,1624,0,647
1562849249390,283,Login,200,OK,Thread Group 1-1,text,true,,3070,326,1,1,http://api.tournaments.org.in/tos/Login,272,0,113
1562849249676,220,Login,200,OK,Thread Group 1-1,text,true,,3063,326,1,1,http://api.tournaments.org.in/tos/Login,219,0,38
1562849249899,163,Login,200,OK,Thread Group 1-1,text,true,,3069,326,1,1,http://api.tournaments.org.in/tos/Login,163,0,42
1562849250067,216,Login,200,OK,Thread Group 1-1,text,true,,3076,326,1,1,http://api.tournaments.org.in/tos/Login,214,0,77
1562849250286,466,Login,200,OK,Thread Group 1-1,text,true,,3076,326,1,1,http://api.tournaments.org.in/tos/Login,466,0,106
1562849250756,194,Login,200,OK,Thread Group 1-1,text,true,,3070,326,1,1,http://api.tournaments.org.in/tos/Login,193,0,56
1562849250954,325,Login,200,OK,Thread Group 1-1,text,true,,3076,326,1,1,http://api.tournaments.org.in/tos/Login,325,0,132
1562849251282,208,Login,200,OK,Thread Group 1-1,text,true,,3076,326,1,1,http://api.tournaments.org.in/tos/Login,206,0,63
1562849251493,169,Login,200,OK,Thread Group 1-1,text,true,,3076,326,1,1,http://api.tournaments.org.in/tos/Login,166,0,66
1562849251664,283,Login,200,OK,Thread Group 1-1,text,true,,3063,326,1,1,http://api.tournaments.org.in/tos/Login,282,0,127
1562849251950,189,Login,200,OK,Thread Group 1-1,text,true,,3076,326,1,1,http://api.tournaments.org.in/tos/Login,189,0,50
1562849252142,192,Login,200,OK,Thread Group 1-1,text,true,,3063,326,1,1,http://api.tournaments.org.in/tos/Login,191,0,59
1562849252338,408,Login,200,OK,Thread Group 1-1,text,true,,3063,326,1,1,http://api.tournaments.org.in/tos/Login,408,0,296
1562849252748,620,Login,200,OK,Thread Group 1-1,text,true,,3070,326,1,1,http://api.tournaments.org.in/tos/Login,619,0,46
1562849253373,439,Login,200,OK,Thread Group 1-1,text,true,,3076,326,1,1,http://api.tournaments.org.in/tos/Login,438,0,98
1562849253815,154,Login,200,OK,Thread Group 1-1,text,true,,3070,326,1,1,http://api.tournaments.org.in/tos/Login,154,0,50
1562849253972,147,Login,200,OK,Thread Group 1-1,text,true,,3076,326,1,1,http://api.tournaments.org.in/tos/Login,145,0,36
1562849254123,192,Login,200,OK,Thread Group 1-1,text,true,,3069,326,1,1,http://api.tournaments.org.in/tos/Login,192,0,40
1562849254318,312,Login,200,OK,Thread Group 1-1,text,true,,3070,326,1,1,http://api.tournaments.org.in/tos/Login,311,0,183
1562849254633,145,Login,200,OK,Thread Group 1-1,text,true,,3076,326,1,1,http://api.tournaments.org.in/tos/Login,145,0,36
1562849254782,203,Login,200,OK,Thread Group 1-1,text,true,,3076,326,1,1,http://api.tournaments.org.in/tos/Login,203,0,98
1562849254988,346,Login,200,OK,Thread Group 1-1,text,true,,3069,326,1,1,http://api.tournaments.org.in/tos/Login,345,0,170
1562849255337,215,Login,200,OK,Thread Group 1-1,text,true,,3070,326,1,1,http://api.tournaments.org.in/tos/Login,215,0,83
1562849255556,239,Login,200,OK,Thread Group 1-1,text,true,,3063,326,1,1,http://api.tournaments.org.in/tos/Login,239,0,122
1562849255798,225,Login,200,OK,Thread Group 1-1,text,true,,3069,326,1,1,http://api.tournaments.org.in/tos/Login,225,0,93
1562849256026,355,Login,200,OK,Thread Group 1-1,text,true,,3063,326,1,1,http://api.tournaments.org.in/tos/Login,355,0,70
1562849256385,305,Login,200,OK,Thread Group 1-1,text,true,,3063,326,1,1,http://api.tournaments.org.in/tos/Login,305,0,52
1562849256693,205,Login,200,OK,Thread Group 1-1,text,true,,3063,326,1,1,http://api.tournaments.org.in/tos/Login,200,0,99
1562849256902,177,Login,200,OK,Thread Group 1-1,text,true,,3063,326,1,1,http://api.tournaments.org.in/tos/Login,176,0,58
1562849257082,158,Login,200,OK,Thread Group 1-1,text,true,,3069,326,1,1,http://api.tournaments.org.in/tos/Login,157,0,38
1562849257243,148,Login,200,OK,Thread Group 1-1,text,true,,3063,326,1,1,http://api.tournaments.org.in/tos/Login,146,0,36
1562849257394,156,Login,200,OK,Thread Group 1-1,text,true,,3063,326,1,1,http://api.tournaments.org.in/tos/Login,155,0,46
1562849257553,852,Login,200,OK,Thread Group 1-1,text,true,,3063,326,1,1,http://api.tournaments.org.in/tos/Login,850,0,81
1562849258409,446,Login,200,OK,Thread Group 1-1,text,true,,3063,326,1,1,http://api.tournaments.org.in/tos/Login,446,0,341
1562849258858,180,Login,200,OK,Thread Group 1-1,text,true,,3069,326,1,1,http://api.tournaments.org.in/tos/Login,179,0,39
1562849259040,147,Login,200,OK,Thread Group 1-1,text,true,,3069,326,1,1,http://api.tournaments.org.in/tos/Login,146,0,37
1562849259190,294,Login,200,OK,Thread Group 1-1,text,true,,3063,326,1,1,http://api.tournaments.org.in/tos/Login,293,0,116
1562849259487,249,Login,200,OK,Thread Group 1-1,text,true,,3063,326,1,1,http://api.tournaments.org.in/tos/Login,249,0,108
1562849259742,146,Login,200,OK,Thread Group 1-1,text,true,,3063,326,1,1,http://api.tournaments.org.in/tos/Login,145,0,36
1562849259892,171,Login,200,OK,Thread Group 1-1,text,true,,3063,326,1,1,http://api.tournaments.org.in/tos/Login,170,0,59
1562849260066,265,Login,200,OK,Thread Group 1-1,text,true,,3063,326,1,1,http://api.tournaments.org.in/tos/Login,265,0,150
1562849260334,171,Login,200,OK,Thread Group 1-1,text,true,,3063,326,1,1,http://api.tournaments.org.in/tos/Login,171,0,63
1562849260508,145,Login,200,OK,Thread Group 1-1,text,true,,3063,326,1,1,http://api.tournaments.org.in/tos/Login,144,0,38
1562849260656,238,Login,200,OK,Thread Group 1-1,text,true,,3063,326,1,1,http://api.tournaments.org.in/tos/Login,237,0,90
1562849260897,233,Login,200,OK,Thread Group 1-1,text,true,,3063,326,1,1,http://api.tournaments.org.in/tos/Login,232,0,72
1562849261133,177,Login,200,OK,Thread Group 1-1,text,true,,3063,326,1,1,http://api.tournaments.org.in/tos/Login,176,0,59
1562849261313,314,Login,200,OK,Thread Group 1-1,text,true,,3063,326,1,1,http://api.tournaments.org.in/tos/Login,313,0,108
1562849261630,196,Login,200,OK,Thread Group 1-1,text,true,,3063,326,1,1,http://api.tournaments.org.in/tos/Login,195,0,82
1562849261829,279,Login,200,OK,Thread Group 1-1,text,true,,3069,326,1,1,http://api.tournaments.org.in/tos/Login,279,0,101
1562849262111,171,Login,200,OK,Thread Group 1-1,text,true,,3063,326,1,1,http://api.tournaments.org.in/tos/Login,170,0,67
1562849262285,264,Login,200,OK,Thread Group 1-1,text,true,,3069,326,1,1,http://api.tournaments.org.in/tos/Login,264,0,97
1562849262552,234,Login,200,OK,Thread Group 1-1,text,true,,3063,326,1,1,http://api.tournaments.org.in/tos/Login,234,0,42
1562849262792,575,Login,200,OK,Thread Group 1-1,text,true,,3070,326,1,1,http://api.tournaments.org.in/tos/Login,575,0,92
1562849263371,327,Login,200,OK,Thread Group 1-1,text,true,,3063,326,1,1,http://api.tournaments.org.in/tos/Login,326,0,198
1562849263701,284,Login,200,OK,Thread Group 1-1,text,true,,3069,326,1,1,http://api.tournaments.org.in/tos/Login,284,0,103
1562849263991,136,Login,200,OK,Thread Group 1-1,text,true,,3063,326,1,1,http://api.tournaments.org.in/tos/Login,135,0,34
1562849264129,160,Login,200,OK,Thread Group 1-1,text,true,,3063,326,1,1,http://api.tournaments.org.in/tos/Login,159,0,36
1562849264292,172,Login,200,OK,Thread Group 1-1,text,true,,3063,326,1,1,http://api.tournaments.org.in/tos/Login,172,0,66
1562849264467,283,Login,200,OK,Thread Group 1-1,text,true,,3063,326,1,1,http://api.tournaments.org.in/tos/Login,281,0,105
1562849264753,150,Login,200,OK,Thread Group 1-1,text,true,,3063,326,1,1,http://api.tournaments.org.in/tos/Login,150,0,44
1562849264909,280,Login,200,OK,Thread Group 1-1,text,true,,3063,326,1,1,http://api.tournaments.org.in/tos/Login,278,0,123
1562849265192,303,Login,200,OK,Thread Group 1-1,text,true,,3063,326,1,1,http://api.tournaments.org.in/tos/Login,303,0,189
1562849265498,190,Login,200,OK,Thread Group 1-1,text,true,,3069,326,1,1,http://api.tournaments.org.in/tos/Login,190,0,39
1562849265691,347,Login,200,OK,Thread Group 1-1,text,true,,3069,326,1,1,http://api.tournaments.org.in/tos/Login,347,0,200
1562849266041,207,Login,200,OK,Thread Group 1-1,text,true,,3069,326,1,1,http://api.tournaments.org.in/tos/Login,206,0,63
1562849266251,161,Login,200,OK,Thread Group 1-1,text,true,,3063,326,1,1,http://api.tournaments.org.in/tos/Login,160,0,48
1562849266415,281,Login,200,OK,Thread Group 1-1,text,true,,3063,326,1,1,http://api.tournaments.org.in/tos/Login,280,0,153
1562849266699,253,Login,200,OK,Thread Group 1-1,text,true,,3063,326,1,1,http://api.tournaments.org.in/tos/Login,252,0,91
1562849266955,271,Login,200,OK,Thread Group 1-1,text,true,,3063,326,1,1,http://api.tournaments.org.in/tos/Login,270,0,115
1562849267229,159,Login,200,OK,Thread Group 1-1,text,true,,3063,326,1,1,http://api.tournaments.org.in/tos/Login,158,0,41
1562849267391,234,Login,200,OK,Thread Group 1-1,text,true,,3063,326,1,1,http://api.tournaments.org.in/tos/Login,234,0,109
1562849267628,734,Login,200,OK,Thread Group 1-1,text,true,,3063,326,1,1,http://api.tournaments.org.in/tos/Login,733,0,94
1562849268365,297,Login,200,OK,Thread Group 1-1,text,true,,3063,326,1,1,http://api.tournaments.org.in/tos/Login,297,0,139
1562849268665,171,Login,200,OK,Thread Group 1-1,text,true,,3063,326,1,1,http://api.tournaments.org.in/tos/Login,170,0,72
1562849268840,159,Login,200,OK,Thread Group 1-1,text,true,,3063,326,1,1,http://api.tournaments.org.in/tos/Login,159,0,37
1562849269002,233,Login,200,OK,Thread Group 1-1,text,true,,3069,326,1,1,http://api.tournaments.org.in/tos/Login,233,0,72
1562849269238,154,Login,200,OK,Thread Group 1-1,text,true,,3069,326,1,1,http://api.tournaments.org.in/tos/Login,154,0,33
1562849269395,335,Login,200,OK,Thread Group 1-1,text,true,,3063,326,1,1,http://api.tournaments.org.in/tos/Login,335,0,145
1562849269734,218,Login,200,OK,Thread Group 1-1,text,true,,3076,326,1,1,http://api.tournaments.org.in/tos/Login,216,0,82
1562849269956,259,Login,200,OK,Thread Group 1-1,text,true,,3076,326,1,1,http://api.tournaments.org.in/tos/Login,257,0,98
1562849270218,197,Login,200,OK,Thread Group 1-1,text,true,,3076,326,1,1,http://api.tournaments.org.in/tos/Login,197,0,77
1562849270419,275,Login,200,OK,Thread Group 1-1,text,true,,3069,326,1,1,http://api.tournaments.org.in/tos/Login,275,0,108
1562849270697,246,Login,200,OK,Thread Group 1-1,text,true,,3070,326,1,1,http://api.tournaments.org.in/tos/Login,245,0,87
1562849270945,249,Login,200,OK,Thread Group 1-1,text,true,,3070,326,1,1,http://api.tournaments.org.in/tos/Login,249,0,100
1562849271197,258,Login,200,OK,Thread Group 1-1,text,true,,3063,326,1,1,http://api.tournaments.org.in/tos/Login,258,0,87
1562849271458,433,Login,200,OK,Thread Group 1-1,text,true,,3063,326,1,1,http://api.tournaments.org.in/tos/Login,433,0,199
1562849271896,157,Login,200,OK,Thread Group 1-1,text,true,,3069,326,1,1,http://api.tournaments.org.in/tos/Login,157,0,42
1562849272056,325,Login,200,OK,Thread Group 1-1,text,true,,3063,326,1,1,http://api.tournaments.org.in/tos/Login,324,0,158
1562849272384,333,Login,200,OK,Thread Group 1-1,text,true,,3069,326,1,1,http://api.tournaments.org.in/tos/Login,333,0,152
1562849272721,211,Login,200,OK,Thread Group 1-1,text,true,,3070,326,1,1,http://api.tournaments.org.in/tos/Login,211,0,59
1562849272936,383,Login,200,OK,Thread Group 1-1,text,true,,3063,326,1,1,http://api.tournaments.org.in/tos/Login,383,0,217
1562849273322,278,Login,200,OK,Thread Group 1-1,text,true,,3069,326,1,1,http://api.tournaments.org.in/tos/Login,277,0,136
1562849273604,333,Login,200,OK,Thread Group 1-1,text,true,,3063,326,1,1,http://api.tournaments.org.in/tos/Login,333,0,149
1562849273941,179,Login,200,OK,Thread Group 1-1,text,true,,3063,326,1,1,http://api.tournaments.org.in/tos/Login,178,0,55
1562849274123,921,Login,200,OK,Thread Group 1-1,text,true,,3069,326,1,1,http://api.tournaments.org.in/tos/Login,921,0,625
1562849275047,150,Login,200,OK,Thread Group 1-1,text,true,,3063,326,1,1,http://api.tournaments.org.in/tos/Login,149,0,48
1562849275200,358,Login,200,OK,Thread Group 1-1,text,true,,3063,326,1,1,http://api.tournaments.org.in/tos/Login,358,0,155
1562849275561,226,Login,200,OK,Thread Group 1-1,text,true,,3069,326,1,1,http://api.tournaments.org.in/tos/Login,226,0,92
1562849275792,232,Login,200,OK,Thread Group 1-1,text,true,,3063,326,1,1,http://api.tournaments.org.in/tos/Login,232,0,74
1562849276027,240,Login,200,OK,Thread Group 1-1,text,true,,3063,326,1,1,http://api.tournaments.org.in/tos/Login,239,0,114
1562849276272,250,Login,200,OK,Thread Group 1-1,text,true,,3076,326,1,1,http://api.tournaments.org.in/tos/Login,249,0,91
1562849276527,232,Login,200,OK,Thread Group 1-1,text,true,,3076,326,1,1,http://api.tournaments.org.in/tos/Login,231,0,79
1562849276764,181,Login,200,OK,Thread Group 1-1,text,true,,3076,326,1,1,http://api.tournaments.org.in/tos/Login,176,0,66
1562849276948,239,Login,200,OK,Thread Group 1-1,text,true,,3069,326,1,1,http://api.tournaments.org.in/tos/Login,239,0,95
1562849277191,159,Login,200,OK,Thread Group 1-1,text,true,,3069,326,1,1,http://api.tournaments.org.in/tos/Login,159,0,59
1562849277353,134,Login,200,OK,Thread Group 1-1,text,true,,3076,326,1,1,http://api.tournaments.org.in/tos/Login,133,0,32
1562849277490,212,Login,200,OK,Thread Group 1-1,text,true,,3076,326,1,1,http://api.tournaments.org.in/tos/Login,211,0,109
1562849277706,353,Login,200,OK,Thread Group 1-1,text,true,,3076,326,1,1,http://api.tournaments.org.in/tos/Login,352,0,90
1562849278062,190,Login,200,OK,Thread Group 1-1,text,true,,3076,326,1,1,http://api.tournaments.org.in/tos/Login,188,0,70
1562849278256,225,Login,200,OK,Thread Group 1-1,text,true,,3076,326,1,1,http://api.tournaments.org.in/tos/Login,224,0,96
1562849278484,258,Login,200,OK,Thread Group 1-1,text,true,,3076,326,1,1,http://api.tournaments.org.in/tos/Login,257,0,75
1562849278745,218,Login,200,OK,Thread Group 1-1,text,true,,3069,326,1,1,http://api.tournaments.org.in/tos/Login,218,0,116
1562849278967,478,Login,200,OK,Thread Group 1-1,text,true,,3076,326,1,1,http://api.tournaments.org.in/tos/Login,475,0,343
1562849279448,246,Login,200,OK,Thread Group 1-1,text,true,,3069,326,1,1,http://api.tournaments.org.in/tos/Login,246,0,131
1562849279697,221,Login,200,OK,Thread Group 1-1,text,true,,3069,326,1,1,http://api.tournaments.org.in/tos/Login,221,0,109
1562849279922,142,Login,200,OK,Thread Group 1-1,text,true,,3076,326,1,1,http://api.tournaments.org.in/tos/Login,141,0,33
1562849280071,134,Login,200,OK,Thread Group 1-1,text,true,,3076,326,1,1,http://api.tournaments.org.in/tos/Login,133,0,32
1562849280208,156,Login,200,OK,Thread Group 1-1,text,true,,3063,326,1,1,http://api.tournaments.org.in/tos/Login,155,0,55
1562849280367,250,Login,200,OK,Thread Group 1-1,text,true,,3076,326,1,1,http://api.tournaments.org.in/tos/Login,249,0,57
1562849280620,3696,Login,200,OK,Thread Group 1-1,text,true,,3076,326,1,1,http://api.tournaments.org.in/tos/Login,3694,0,3566
1562849284319,232,Login,200,OK,Thread Group 1-1,text,true,,3063,326,1,1,http://api.tournaments.org.in/tos/Login,231,0,36
1562849284555,717,Login,200,OK,Thread Group 1-1,text,true,,3069,326,1,1,http://api.tournaments.org.in/tos/Login,717,0,143
1562849285275,708,Login,200,OK,Thread Group 1-1,text,true,,3063,326,1,1,http://api.tournaments.org.in/tos/Login,707,0,456
1562849285987,311,Login,200,OK,Thread Group 1-1,text,true,,3069,326,1,1,http://api.tournaments.org.in/tos/Login,311,0,146
1562849286302,386,Login,200,OK,Thread Group 1-1,text,true,,3076,326,1,1,http://api.tournaments.org.in/tos/Login,383,0,213
1562849286690,329,Login,200,OK,Thread Group 1-1,text,true,,3076,326,1,1,http://api.tournaments.org.in/tos/Login,328,0,149
1562849287023,435,Login,200,OK,Thread Group 1-1,text,true,,3076,326,1,1,http://api.tournaments.org.in/tos/Login,434,0,221
1562849287461,321,Login,200,OK,Thread Group 1-1,text,true,,3070,326,1,1,http://api.tournaments.org.in/tos/Login,321,0,91
1562849287786,350,Login,200,OK,Thread Group 1-1,text,true,,3069,326,1,1,http://api.tournaments.org.in/tos/Login,350,0,195
1562849288139,296,Login,200,OK,Thread Group 1-1,text,true,,3063,326,1,1,http://api.tournaments.org.in/tos/Login,295,0,136
1562849288438,164,Login,200,OK,Thread Group 1-1,text,true,,3069,326,1,1,http://api.tournaments.org.in/tos/Login,164,0,50
1562849288605,592,Login,200,OK,Thread Group 1-1,text,true,,3070,326,1,1,http://api.tournaments.org.in/tos/Login,589,0,34
1562849289201,659,Login,200,OK,Thread Group 1-1,text,true,,3070,326,1,1,http://api.tournaments.org.in/tos/Login,659,0,469
1562849289863,335,Login,200,OK,Thread Group 1-1,text,true,,3076,326,1,1,http://api.tournaments.org.in/tos/Login,319,0,129
1562849290201,244,Login,200,OK,Thread Group 1-1,text,true,,3076,326,1,1,http://api.tournaments.org.in/tos/Login,243,0,92
1562849290448,253,Login,200,OK,Thread Group 1-1,text,true,,3076,326,1,1,http://api.tournaments.org.in/tos/Login,251,0,113
1562849290704,222,Login,200,OK,Thread Group 1-1,text,true,,3069,326,1,1,http://api.tournaments.org.in/tos/Login,222,0,67
1562849290929,143,Login,200,OK,Thread Group 1-1,text,true,,3063,326,1,1,http://api.tournaments.org.in/tos/Login,142,0,32
1562849291074,227,Login,200,OK,Thread Group 1-1,text,true,,3076,326,1,1,http://api.tournaments.org.in/tos/Login,224,0,63
1562849291305,281,Login,200,OK,Thread Group 1-1,text,true,,3069,326,1,1,http://api.tournaments.org.in/tos/Login,281,0,75
1562849291590,225,Login,200,OK,Thread Group 1-1,text,true,,3076,326,1,1,http://api.tournaments.org.in/tos/Login,210,0,62
1562849291818,154,Login,200,OK,Thread Group 1-1,text,true,,3076,326,1,1,http://api.tournaments.org.in/tos/Login,153,0,46
1562849291975,306,Login,200,OK,Thread Group 1-1,text,true,,3070,326,1,1,http://api.tournaments.org.in/tos/Login,306,0,164
1562849292285,163,Login,200,OK,Thread Group 1-1,text,true,,3063,326,1,1,http://api.tournaments.org.in/tos/Login,163,0,45
1562849292452,265,Login,200,OK,Thread Group 1-1,text,true,,3063,326,1,1,http://api.tournaments.org.in/tos/Login,264,0,100
1562849292721,233,Login,200,OK,Thread Group 1-1,text,true,,3063,326,1,1,http://api.tournaments.org.in/tos/Login,233,0,71
1562849292958,214,Login,200,OK,Thread Group 1-1,text,true,,3063,326,1,1,http://api.tournaments.org.in/tos/Login,213,0,67
1562849293175,213,Login,200,OK,Thread Group 1-1,text,true,,3063,326,1,1,http://api.tournaments.org.in/tos/Login,213,0,41
1562849293391,210,Login,200,OK,Thread Group 1-1,text,true,,3063,326,1,1,http://api.tournaments.org.in/tos/Login,210,0,49
1562849293604,294,Login,200,OK,Thread Group 1-1,text,true,,3063,326,1,1,http://api.tournaments.org.in/tos/Login,294,0,120
1562849293902,232,Login,200,OK,Thread Group 1-1,text,true,,3069,326,1,1,http://api.tournaments.org.in/tos/Login,232,0,70
1562849294138,188,Login,200,OK,Thread Group 1-1,text,true,,3063,326,1,1,http://api.tournaments.org.in/tos/Login,188,0,67
1562849294330,309,Login,200,OK,Thread Group 1-1,text,true,,3069,326,1,1,http://api.tournaments.org.in/tos/Login,309,0,64
1562849294643,251,Login,200,OK,Thread Group 1-1,text,true,,3063,326,1,1,http://api.tournaments.org.in/tos/Login,251,0,73
1562849294897,422,Login,200,OK,Thread Group 1-1,text,true,,3063,326,1,1,http://api.tournaments.org.in/tos/Login,421,0,187
1562849295322,261,Login,200,OK,Thread Group 1-1,text,true,,3069,326,1,1,http://api.tournaments.org.in/tos/Login,261,0,136
1562849295586,178,Login,200,OK,Thread Group 1-1,text,true,,3076,326,1,1,http://api.tournaments.org.in/tos/Login,163,0,43
1562849295767,198,Login,200,OK,Thread Group 1-1,text,true,,3076,326,1,1,http://api.tournaments.org.in/tos/Login,196,0,87
1562849295968,386,Login,200,OK,Thread Group 1-1,text,true,,3076,326,1,1,http://api.tournaments.org.in/tos/Login,384,0,132
1562849296357,234,Login,200,OK,Thread Group 1-1,text,true,,3063,326,1,1,http://api.tournaments.org.in/tos/Login,234,0,83
1562849296594,213,Login,200,OK,Thread Group 1-1,text,true,,3063,326,1,1,http://api.tournaments.org.in/tos/Login,212,0,43
1562849296811,316,Login,200,OK,Thread Group 1-1,text,true,,3063,326,1,1,http://api.tournaments.org.in/tos/Login,315,0,143
1562849297130,180,Login,200,OK,Thread Group 1-1,text,true,,3063,326,1,1,http://api.tournaments.org.in/tos/Login,179,0,61
1562849297312,198,Login,200,OK,Thread Group 1-1,text,true,,3069,326,1,1,http://api.tournaments.org.in/tos/Login,198,0,66
1562849297513,162,Login,200,OK,Thread Group 1-1,text,true,,3069,326,1,1,http://api.tournaments.org.in/tos/Login,162,0,45
1562849297678,156,Login,200,OK,Thread Group 1-1,text,true,,3063,326,1,1,http://api.tournaments.org.in/tos/Login,155,0,48
1562849297858,292,Login,200,OK,Thread Group 1-1,text,true,,3063,326,1,1,http://api.tournaments.org.in/tos/Login,291,0,85
1562849298154,371,Login,200,OK,Thread Group 1-1,text,true,,3063,326,1,1,http://api.tournaments.org.in/tos/Login,371,0,151
1562849298528,649,Login,200,OK,Thread Group 1-1,text,true,,3063,326,1,1,http://api.tournaments.org.in/tos/Login,648,0,44
1562849299181,385,Login,200,OK,Thread Group 1-1,text,true,,3063,326,1,1,http://api.tournaments.org.in/tos/Login,385,0,229
1562849299569,179,Login,200,OK,Thread Group 1-1,text,true,,3063,326,1,1,http://api.tournaments.org.in/tos/Login,179,0,60
1562849299751,216,Login,200,OK,Thread Group 1-1,text,true,,3063,326,1,1,http://api.tournaments.org.in/tos/Login,216,0,97
1562849299969,210,Login,200,OK,Thread Group 1-1,text,true,,3070,326,1,1,http://api.tournaments.org.in/tos/Login,210,0,76
1562849300183,144,Login,200,OK,Thread Group 1-1,text,true,,3063,326,1,1,http://api.tournaments.org.in/tos/Login,143,0,40
1562849300330,137,Login,200,OK,Thread Group 1-1,text,true,,3063,326,1,1,http://api.tournaments.org.in/tos/Login,137,0,33
1562849300470,212,Login,200,OK,Thread Group 1-1,text,true,,3063,326,1,1,http://api.tournaments.org.in/tos/Login,211,0,69
1562849300685,281,Login,200,OK,Thread Group 1-1,text,true,,3069,326,1,1,http://api.tournaments.org.in/tos/Login,281,0,85
1562849300970,665,Login,200,OK,Thread Group 1-1,text,true,,3069,326,1,1,http://api.tournaments.org.in/tos/Login,665,0,281
1562849301638,187,Login,200,OK,Thread Group 1-1,text,true,,3063,326,1,1,http://api.tournaments.org.in/tos/Login,187,0,60
1562849301828,219,Login,200,OK,Thread Group 1-1,text,true,,3063,326,1,1,http://api.tournaments.org.in/tos/Login,219,0,74
1562849302050,167,Login,200,OK,Thread Group 1-1,text,true,,3063,326,1,1,http://api.tournaments.org.in/tos/Login,160,0,53
1562849302235,191,Login,200,OK,Thread Group 1-1,text,true,,3063,326,1,1,http://api.tournaments.org.in/tos/Login,190,0,80
1562849302428,294,Login,200,OK,Thread Group 1-1,text,true,,3063,326,1,1,http://api.tournaments.org.in/tos/Login,294,0,80
1562849302725,341,Login,200,OK,Thread Group 1-1,text,true,,3063,326,1,1,http://api.tournaments.org.in/tos/Login,341,0,225
1562849303070,144,Login,200,OK,Thread Group 1-1,text,true,,3063,326,1,1,http://api.tournaments.org.in/tos/Login,143,0,41
1562849303217,160,Login,200,OK,Thread Group 1-1,text,true,,3069,326,1,1,http://api.tournaments.org.in/tos/Login,160,0,42
1562849303380,792,Login,200,OK,Thread Group 1-1,text,true,,3063,326,1,1,http://api.tournaments.org.in/tos/Login,792,0,90
1562849304175,212,Login,200,OK,Thread Group 1-1,text,true,,3063,326,1,1,http://api.tournaments.org.in/tos/Login,212,0,71
1562849304389,465,Login,200,OK,Thread Group 1-1,text,true,,3069,326,1,1,http://api.tournaments.org.in/tos/Login,465,0,276
1562849304857,314,Login,200,OK,Thread Group 1-1,text,true,,3063,326,1,1,http://api.tournaments.org.in/tos/Login,314,0,172
1562849305174,287,Login,200,OK,Thread Group 1-1,text,true,,3063,326,1,1,http://api.tournaments.org.in/tos/Login,287,0,88
1562849305464,295,Login,200,OK,Thread Group 1-1,text,true,,3063,326,1,1,http://api.tournaments.org.in/tos/Login,294,0,91
1562849305761,275,Login,200,OK,Thread Group 1-1,text,true,,3063,326,1,1,http://api.tournaments.org.in/tos/Login,274,0,131
1562849306039,393,Login,200,OK,Thread Group 1-1,text,true,,3063,326,1,1,http://api.tournaments.org.in/tos/Login,392,0,230
1562849306435,230,Login,200,OK,Thread Group 1-1,text,true,,3069,326,1,1,http://api.tournaments.org.in/tos/Login,230,0,77
1562849306668,143,Login,200,OK,Thread Group 1-1,text,true,,3069,326,1,1,http://api.tournaments.org.in/tos/Login,143,0,33
1562849306814,137,Login,200,OK,Thread Group 1-1,text,true,,3063,326,1,1,http://api.tournaments.org.in/tos/Login,137,0,34
1562849306954,155,Login,200,OK,Thread Group 1-1,text,true,,3063,326,1,1,http://api.tournaments.org.in/tos/Login,154,0,43
1562849307112,302,Login,200,OK,Thread Group 1-1,text,true,,3070,326,1,1,http://api.tournaments.org.in/tos/Login,302,0,81
1562849307417,272,Login,200,OK,Thread Group 1-1,text,true,,3063,326,1,1,http://api.tournaments.org.in/tos/Login,272,0,133
1562849307694,218,Login,200,OK,Thread Group 1-1,text,true,,3063,326,1,1,http://api.tournaments.org.in/tos/Login,217,0,68
1562849307916,218,Login,200,OK,Thread Group 1-1,text,true,,3063,326,1,1,http://api.tournaments.org.in/tos/Login,218,0,93
1562849308137,363,Login,200,OK,Thread Group 1-1,text,true,,3063,326,1,1,http://api.tournaments.org.in/tos/Login,363,0,219
1562849308503,130,Login,200,OK,Thread Group 1-1,text,true,,3063,326,1,1,http://api.tournaments.org.in/tos/Login,129,0,34
1562849308636,437,Login,200,OK,Thread Group 1-1,text,true,,3069,326,1,1,http://api.tournaments.org.in/tos/Login,437,0,273
1562849309076,872,Login,200,OK,Thread Group 1-1,text,true,,3063,326,1,1,http://api.tournaments.org.in/tos/Login,872,0,642
1562849309951,273,Login,200,OK,Thread Group 1-1,text,true,,3069,326,1,1,http://api.tournaments.org.in/tos/Login,273,0,65
1562849310231,275,Login,200,OK,Thread Group 1-1,text,true,,3063,326,1,1,http://api.tournaments.org.in/tos/Login,275,0,100
1562849310509,240,Login,200,OK,Thread Group 1-1,text,true,,3063,326,1,1,http://api.tournaments.org.in/tos/Login,240,0,91
1562849310752,387,Login,200,OK,Thread Group 1-1,text,true,,3063,326,1,1,http://api.tournaments.org.in/tos/Login,387,0,83
1562849311142,416,Login,200,OK,Thread Group 1-1,text,true,,3063,326,1,1,http://api.tournaments.org.in/tos/Login,416,0,93
1562849311561,273,Login,200,OK,Thread Group 1-1,text,true,,3069,326,1,1,http://api.tournaments.org.in/tos/Login,273,0,123
1562849311837,448,Login,200,OK,Thread Group 1-1,text,true,,3063,326,1,1,http://api.tournaments.org.in/tos/Login,448,0,162
1562849312288,235,Login,200,OK,Thread Group 1-1,text,true,,3063,326,1,1,http://api.tournaments.org.in/tos/Login,235,0,97
1562849312526,206,Login,200,OK,Thread Group 1-1,text,true,,3069,326,1,1,http://api.tournaments.org.in/tos/Login,206,0,90
1562849312735,146,Login,200,OK,Thread Group 1-1,text,true,,3063,326,1,1,http://api.tournaments.org.in/tos/Login,145,0,37
1562849312884,230,Login,200,OK,Thread Group 1-1,text,true,,3063,326,1,1,http://api.tournaments.org.in/tos/Login,230,0,80
1562849313117,365,Login,200,OK,Thread Group 1-1,text,true,,3069,326,1,1,http://api.tournaments.org.in/tos/Login,365,0,213
1562849313485,199,Login,200,OK,Thread Group 1-1,text,true,,3063,326,1,1,http://api.tournaments.org.in/tos/Login,199,0,78
1562849313687,234,Login,200,OK,Thread Group 1-1,text,true,,3069,326,1,1,http://api.tournaments.org.in/tos/Login,234,0,88
1562849313924,193,Login,200,OK,Thread Group 1-1,text,true,,3069,326,1,1,http://api.tournaments.org.in/tos/Login,193,0,53
1562849314120,711,Login,200,OK,Thread Group 1-1,text,true,,3063,326,1,1,http://api.tournaments.org.in/tos/Login,711,0,565
1562849314835,231,Login,200,OK,Thread Group 1-1,text,true,,3063,326,1,1,http://api.tournaments.org.in/tos/Login,231,0,87
1562849315069,262,Login,200,OK,Thread Group 1-1,text,true,,3063,326,1,1,http://api.tournaments.org.in/tos/Login,262,0,144
1562849315335,187,Login,200,OK,Thread Group 1-1,text,true,,3063,326,1,1,http://api.tournaments.org.in/tos/Login,186,0,81
1562849315525,204,Login,200,OK,Thread Group 1-1,text,true,,3063,326,1,1,http://api.tournaments.org.in/tos/Login,203,0,57
1562849315733,212,Login,200,OK,Thread Group 1-1,text,true,,3063,326,1,1,http://api.tournaments.org.in/tos/Login,211,0,64
1562849315948,169,Login,200,OK,Thread Group 1-1,text,true,,3069,326,1,1,http://api.tournaments.org.in/tos/Login,169,0,40
1562849316120,229,Login,200,OK,Thread Group 1-1,text,true,,3070,326,1,1,http://api.tournaments.org.in/tos/Login,229,0,69
1562849316354,314,Login,200,OK,Thread Group 1-1,text,true,,3063,326,1,1,http://api.tournaments.org.in/tos/Login,313,0,110
1562849316672,174,Login,200,OK,Thread Group 1-1,text,true,,3069,326,1,1,http://api.tournaments.org.in/tos/Login,174,0,41
1562849316850,197,Login,200,OK,Thread Group 1-1,text,true,,3069,326,1,1,http://api.tournaments.org.in/tos/Login,197,0,59
1562849317050,200,Login,200,OK,Thread Group 1-1,text,true,,3069,326,1,1,http://api.tournaments.org.in/tos/Login,200,0,63
1562849317253,137,Login,200,OK,Thread Group 1-1,text,true,,3063,326,1,1,http://api.tournaments.org.in/tos/Login,135,0,33
1562849317392,143,Login,200,OK,Thread Group 1-1,text,true,,3069,326,1,1,http://api.tournaments.org.in/tos/Login,143,0,33
1562849317538,137,Login,200,OK,Thread Group 1-1,text,true,,3063,326,1,1,http://api.tournaments.org.in/tos/Login,136,0,32
1562849317678,143,Login,200,OK,Thread Group 1-1,text,true,,3069,326,1,1,http://api.tournaments.org.in/tos/Login,143,0,36
1562849317824,146,Login,200,OK,Thread Group 1-1,text,true,,3063,326,1,1,http://api.tournaments.org.in/tos/Login,146,0,33
1562849317973,371,Login,200,OK,Thread Group 1-1,text,true,,3063,326,1,1,http://api.tournaments.org.in/tos/Login,371,0,199
1562849318347,154,Login,200,OK,Thread Group 1-1,text,true,,3063,326,1,1,http://api.tournaments.org.in/tos/Login,154,0,33
1562849318504,207,Login,200,OK,Thread Group 1-1,text,true,,3069,326,1,1,http://api.tournaments.org.in/tos/Login,207,0,100
1562849318714,1207,Login,200,OK,Thread Group 1-1,text,true,,3063,326,1,1,http://api.tournaments.org.in/tos/Login,1207,0,350
1562849319924,189,Login,200,OK,Thread Group 1-1,text,true,,3063,326,1,1,http://api.tournaments.org.in/tos/Login,188,0,72
1562849320116,341,Login,200,OK,Thread Group 1-1,text,true,,3063,326,1,1,http://api.tournaments.org.in/tos/Login,341,0,189
1562849320459,466,Login,200,OK,Thread Group 1-1,text,true,,3063,326,1,1,http://api.tournaments.org.in/tos/Login,466,0,294
1562849320928,244,Login,200,OK,Thread Group 1-1,text,true,,3069,326,1,1,http://api.tournaments.org.in/tos/Login,244,0,46
1562849321176,211,Login,200,OK,Thread Group 1-1,text,true,,3069,326,1,1,http://api.tournaments.org.in/tos/Login,211,0,70
1562849321390,388,Login,200,OK,Thread Group 1-1,text,true,,3063,326,1,1,http://api.tournaments.org.in/tos/Login,388,0,147
1562849321782,381,Login,200,OK,Thread Group 1-1,text,true,,3070,326,1,1,http://api.tournaments.org.in/tos/Login,381,0,76
1562849322166,277,Login,200,OK,Thread Group 1-1,text,true,,3063,326,1,1,http://api.tournaments.org.in/tos/Login,275,0,109
1562849322446,195,Login,200,OK,Thread Group 1-1,text,true,,3063,326,1,1,http://api.tournaments.org.in/tos/Login,195,0,78
1562849322644,217,Login,200,OK,Thread Group 1-1,text,true,,3063,326,1,1,http://api.tournaments.org.in/tos/Login,217,0,64
1562849322865,341,Login,200,OK,Thread Group 1-1,text,true,,3069,326,1,1,http://api.tournaments.org.in/tos/Login,341,0,100
1562849323210,144,Login,200,OK,Thread Group 1-1,text,true,,3063,326,1,1,http://api.tournaments.org.in/tos/Login,144,0,43
1562849323358,141,Login,200,OK,Thread Group 1-1,text,true,,3076,326,1,1,http://api.tournaments.org.in/tos/Login,141,0,34
1562849323504,167,Login,200,OK,Thread Group 1-1,text,true,,3069,326,1,1,http://api.tournaments.org.in/tos/Login,167,0,54
1562849323679,472,Login,200,OK,Thread Group 1-1,text,true,,3063,326,1,1,http://api.tournaments.org.in/tos/Login,472,0,181
1562849324155,661,Login,200,OK,Thread Group 1-1,text,true,,3070,326,1,1,http://api.tournaments.org.in/tos/Login,661,0,507
1562849324820,215,Login,200,OK,Thread Group 1-1,text,true,,3069,326,1,1,http://api.tournaments.org.in/tos/Login,215,0,85
1562849325039,161,Login,200,OK,Thread Group 1-1,text,true,,3063,326,1,1,http://api.tournaments.org.in/tos/Login,161,0,35
1562849325204,261,Login,200,OK,Thread Group 1-1,text,true,,3069,326,1,1,http://api.tournaments.org.in/tos/Login,261,0,138
1562849325469,268,Login,200,OK,Thread Group 1-1,text,true,,3063,326,1,1,http://api.tournaments.org.in/tos/Login,268,0,57
1562849325743,282,Login,200,OK,Thread Group 1-1,text,true,,3069,326,1,1,http://api.tournaments.org.in/tos/Login,282,0,112
1562849326028,271,Login,200,OK,Thread Group 1-1,text,true,,3069,326,1,1,http://api.tournaments.org.in/tos/Login,270,0,109
1562849326302,248,Login,200,OK,Thread Group 1-1,text,true,,3063,326,1,1,http://api.tournaments.org.in/tos/Login,248,0,97
1562849326553,258,Login,200,OK,Thread Group 1-1,text,true,,3063,326,1,1,http://api.tournaments.org.in/tos/Login,258,0,140
1562849326813,220,Login,200,OK,Thread Group 1-1,text,true,,3069,326,1,1,http://api.tournaments.org.in/tos/Login,220,0,75
1562849327035,172,Login,200,OK,Thread Group 1-1,text,true,,3063,326,1,1,http://api.tournaments.org.in/tos/Login,172,0,64
1562849327209,443,Login,200,OK,Thread Group 1-1,text,true,,3063,326,1,1,http://api.tournaments.org.in/tos/Login,442,0,192
1562849327655,178,Login,200,OK,Thread Group 1-1,text,true,,3063,326,1,1,http://api.tournaments.org.in/tos/Login,178,0,68
1562849327836,207,Login,200,OK,Thread Group 1-1,text,true,,3063,326,1,1,http://api.tournaments.org.in/tos/Login,205,0,90
1562849328046,214,Login,200,OK,Thread Group 1-1,text,true,,3063,326,1,1,http://api.tournaments.org.in/tos/Login,213,0,104
1562849328263,356,Login,200,OK,Thread Group 1-1,text,true,,3063,326,1,1,http://api.tournaments.org.in/tos/Login,355,0,104
1562849328623,316,Login,200,OK,Thread Group 1-1,text,true,,3063,326,1,1,http://api.tournaments.org.in/tos/Login,315,0,143
1562849328942,852,Login,200,OK,Thread Group 1-1,text,true,,3063,326,1,1,http://api.tournaments.org.in/tos/Login,850,0,295
1562849329797,476,Login,200,OK,Thread Group 1-1,text,true,,3070,326,1,1,http://api.tournaments.org.in/tos/Login,476,0,254
1562849330276,265,Login,200,OK,Thread Group 1-1,text,true,,3076,326,1,1,http://api.tournaments.org.in/tos/Login,263,0,66
1562849330545,326,Login,200,OK,Thread Group 1-1,text,true,,3076,326,1,1,http://api.tournaments.org.in/tos/Login,325,0,145
1562849330874,235,Login,200,OK,Thread Group 1-1,text,true,,3063,326,1,1,http://api.tournaments.org.in/tos/Login,235,0,38
1562849331112,175,Login,200,OK,Thread Group 1-1,text,true,,3076,326,1,1,http://api.tournaments.org.in/tos/Login,174,0,36
1562849331290,384,Login,200,OK,Thread Group 1-1,text,true,,3076,326,1,1,http://api.tournaments.org.in/tos/Login,384,0,205
1562849331678,239,Login,200,OK,Thread Group 1-1,text,true,,3063,326,1,1,http://api.tournaments.org.in/tos/Login,238,0,90
1562849331920,245,Login,200,OK,Thread Group 1-1,text,true,,3063,326,1,1,http://api.tournaments.org.in/tos/Login,244,0,86
1562849332168,149,Login,200,OK,Thread Group 1-1,text,true,,3070,326,1,1,http://api.tournaments.org.in/tos/Login,148,0,45
1562849332320,219,Login,200,OK,Thread Group 1-1,text,true,,3063,326,1,1,http://api.tournaments.org.in/tos/Login,219,0,50
1562849332542,201,Login,200,OK,Thread Group 1-1,text,true,,3063,326,1,1,http://api.tournaments.org.in/tos/Login,200,0,62
1562849332746,599,Login,200,OK,Thread Group 1-1,text,true,,3076,326,1,1,http://api.tournaments.org.in/tos/Login,598,0,398
1562849333348,271,Login,200,OK,Thread Group 1-1,text,true,,3069,326,1,1,http://api.tournaments.org.in/tos/Login,271,0,89
1562849333623,218,Login,200,OK,Thread Group 1-1,text,true,,3076,326,1,1,http://api.tournaments.org.in/tos/Login,217,0,73
1562849333844,264,Login,200,OK,Thread Group 1-1,text,true,,3070,326,1,1,http://api.tournaments.org.in/tos/Login,263,0,102
1562849334111,879,Login,200,OK,Thread Group 1-1,text,true,,3069,326,1,1,http://api.tournaments.org.in/tos/Login,879,0,209
1562849334994,252,Login,200,OK,Thread Group 1-1,text,true,,3069,326,1,1,http://api.tournaments.org.in/tos/Login,252,0,70
1562849335249,237,Login,200,OK,Thread Group 1-1,text,true,,3069,326,1,1,http://api.tournaments.org.in/tos/Login,236,0,104
1562849335489,336,Login,200,OK,Thread Group 1-1,text,true,,3063,326,1,1,http://api.tournaments.org.in/tos/Login,336,0,172
1562849335830,232,Login,200,OK,Thread Group 1-1,text,true,,3069,326,1,1,http://api.tournaments.org.in/tos/Login,232,0,83
1562849336064,336,Login,200,OK,Thread Group 1-1,text,true,,3069,326,1,1,http://api.tournaments.org.in/tos/Login,336,0,152
1562849336403,363,Login,200,OK,Thread Group 1-1,text,true,,3069,326,1,1,http://api.tournaments.org.in/tos/Login,363,0,122
1562849336768,212,Login,200,OK,Thread Group 1-1,text,true,,3069,326,1,1,http://api.tournaments.org.in/tos/Login,212,0,72
1562849336983,468,Login,200,OK,Thread Group 1-1,text,true,,3070,326,1,1,http://api.tournaments.org.in/tos/Login,468,0,345
1562849337454,281,Login,200,OK,Thread Group 1-1,text,true,,3069,326,1,1,http://api.tournaments.org.in/tos/Login,281,0,93
1562849337738,270,Login,200,OK,Thread Group 1-1,text,true,,3063,326,1,1,http://api.tournaments.org.in/tos/Login,269,0,78
1562849338012,215,Login,200,OK,Thread Group 1-1,text,true,,3063,326,1,1,http://api.tournaments.org.in/tos/Login,214,0,37
1562849338229,305,Login,200,OK,Thread Group 1-1,text,true,,3069,326,1,1,http://api.tournaments.org.in/tos/Login,305,0,76
1562849338537,301,Login,200,OK,Thread Group 1-1,text,true,,3063,326,1,1,http://api.tournaments.org.in/tos/Login,301,0,114
1562849338841,207,Login,200,OK,Thread Group 1-1,text,true,,3063,326,1,1,http://api.tournaments.org.in/tos/Login,206,0,40
1562849339051,241,Login,200,OK,Thread Group 1-1,text,true,,3063,326,1,1,http://api.tournaments.org.in/tos/Login,240,0,133
1562849339295,279,Login,200,OK,Thread Group 1-1,text,true,,3063,326,1,1,http://api.tournaments.org.in/tos/Login,279,0,52
1562849339578,224,Login,200,OK,Thread Group 1-1,text,true,,3063,326,1,1,http://api.tournaments.org.in/tos/Login,224,0,48
1562849339805,719,Login,200,OK,Thread Group 1-1,text,true,,3063,326,1,1,http://api.tournaments.org.in/tos/Login,717,0,585
1562849340531,294,Login,200,OK,Thread Group 1-1,text,true,,3063,326,1,1,http://api.tournaments.org.in/tos/Login,294,0,88
1562849340828,182,Login,200,OK,Thread Group 1-1,text,true,,3070,326,1,1,http://api.tournaments.org.in/tos/Login,182,0,54
1562849341013,271,Login,200,OK,Thread Group 1-1,text,true,,3063,326,1,1,http://api.tournaments.org.in/tos/Login,269,0,104
1562849341286,194,Login,200,OK,Thread Group 1-1,text,true,,3063,326,1,1,http://api.tournaments.org.in/tos/Login,193,0,67
1562849341483,320,Login,200,OK,Thread Group 1-1,text,true,,3063,326,1,1,http://api.tournaments.org.in/tos/Login,319,0,134
1562849341805,284,Login,200,OK,Thread Group 1-1,text,true,,3063,326,1,1,http://api.tournaments.org.in/tos/Login,284,0,64
1562849342091,179,Login,200,OK,Thread Group 1-1,text,true,,3063,326,1,1,http://api.tournaments.org.in/tos/Login,178,0,77
1562849342273,176,Login,200,OK,Thread Group 1-1,text,true,,3063,326,1,1,http://api.tournaments.org.in/tos/Login,176,0,70
1562849342452,144,Login,200,OK,Thread Group 1-1,text,true,,3063,326,1,1,http://api.tournaments.org.in/tos/Login,143,0,34
1562849342599,213,Login,200,OK,Thread Group 1-1,text,true,,3063,326,1,1,http://api.tournaments.org.in/tos/Login,212,0,67
1562849342815,192,Login,200,OK,Thread Group 1-1,text,true,,3063,326,1,1,http://api.tournaments.org.in/tos/Login,192,0,65
1562849343014,189,Login,200,OK,Thread Group 1-1,text,true,,3063,326,1,1,http://api.tournaments.org.in/tos/Login,188,0,63
1562849343206,235,Login,200,OK,Thread Group 1-1,text,true,,3063,326,1,1,http://api.tournaments.org.in/tos/Login,235,0,105
1562849343445,250,Login,200,OK,Thread Group 1-1,text,true,,3070,326,1,1,http://api.tournaments.org.in/tos/Login,250,0,89
1562849343698,248,Login,200,OK,Thread Group 1-1,text,true,,3063,326,1,1,http://api.tournaments.org.in/tos/Login,247,0,90
1562849343949,140,Login,200,OK,Thread Group 1-1,text,true,,3063,326,1,1,http://api.tournaments.org.in/tos/Login,139,0,35
1562849344093,227,Login,200,OK,Thread Group 1-1,text,true,,3063,326,1,1,http://api.tournaments.org.in/tos/Login,227,0,78
1562849344324,147,Login,200,OK,Thread Group 1-1,text,true,,3063,326,1,1,http://api.tournaments.org.in/tos/Login,146,0,33
1562849344474,276,Login,200,OK,Thread Group 1-1,text,true,,3069,326,1,1,http://api.tournaments.org.in/tos/Login,276,0,117
1562849344753,628,Login,200,OK,Thread Group 1-1,text,true,,3063,326,1,1,http://api.tournaments.org.in/tos/Login,627,0,37
1562849345385,244,Login,200,OK,Thread Group 1-1,text,true,,3063,326,1,1,http://api.tournaments.org.in/tos/Login,243,0,87
1562849345632,207,Login,200,OK,Thread Group 1-1,text,true,,3070,326,1,1,http://api.tournaments.org.in/tos/Login,207,0,67
1562849345843,248,Login,200,OK,Thread Group 1-1,text,true,,3069,326,1,1,http://api.tournaments.org.in/tos/Login,248,0,88
1562849346094,198,Login,200,OK,Thread Group 1-1,text,true,,3069,326,1,1,http://api.tournaments.org.in/tos/Login,198,0,63
1562849346295,197,Login,200,OK,Thread Group 1-1,text,true,,3069,326,1,1,http://api.tournaments.org.in/tos/Login,197,0,62
1562849346495,199,Login,200,OK,Thread Group 1-1,text,true,,3063,326,1,1,http://api.tournaments.org.in/tos/Login,198,0,61
1562849346698,144,Login,200,OK,Thread Group 1-1,text,true,,3063,326,1,1,http://api.tournaments.org.in/tos/Login,143,0,35
1562849346845,187,Login,200,OK,Thread Group 1-1,text,true,,3063,326,1,1,http://api.tournaments.org.in/tos/Login,187,0,57
1562849347035,136,Login,200,OK,Thread Group 1-1,text,true,,3069,326,1,1,http://api.tournaments.org.in/tos/Login,136,0,34
1562849347174,137,Login,200,OK,Thread Group 1-1,text,true,,3076,326,1,1,http://api.tournaments.org.in/tos/Login,137,0,35
1562849347315,147,Login,200,OK,Thread Group 1-1,text,true,,3069,326,1,1,http://api.tournaments.org.in/tos/Login,147,0,33
1562849347465,192,Login,200,OK,Thread Group 1-1,text,true,,3063,326,1,1,http://api.tournaments.org.in/tos/Login,192,0,64
1562849347661,130,Login,200,OK,Thread Group 1-1,text,true,,3069,326,1,1,http://api.tournaments.org.in/tos/Login,129,0,37
1562849347794,128,Login,200,OK,Thread Group 1-1,text,true,,3063,326,1,1,http://api.tournaments.org.in/tos/Login,128,0,36
1562849347926,162,Login,200,OK,Thread Group 1-1,text,true,,3063,326,1,1,http://api.tournaments.org.in/tos/Login,160,0,39
1562849348092,139,Login,200,OK,Thread Group 1-1,text,true,,3069,326,1,1,http://api.tournaments.org.in/tos/Login,139,0,37
1562849348234,210,Login,200,OK,Thread Group 1-1,text,true,,3069,326,1,1,http://api.tournaments.org.in/tos/Login,210,0,69
1562849348447,136,Login,200,OK,Thread Group 1-1,text,true,,3070,326,1,1,http://api.tournaments.org.in/tos/Login,136,0,34
1562849348586,208,Login,200,OK,Thread Group 1-1,text,true,,3069,326,1,1,http://api.tournaments.org.in/tos/Login,208,0,64
1562849348797,257,Login,200,OK,Thread Group 1-1,text,true,,3070,326,1,1,http://api.tournaments.org.in/tos/Login,256,0,99
1562849349058,198,Login,200,OK,Thread Group 1-1,text,true,,3063,326,1,1,http://api.tournaments.org.in/tos/Login,196,0,63
1562849349259,154,Login,200,OK,Thread Group 1-1,text,true,,3063,326,1,1,http://api.tournaments.org.in/tos/Login,153,0,53
1562849349416,191,Login,200,OK,Thread Group 1-1,text,true,,3069,326,1,1,http://api.tournaments.org.in/tos/Login,191,0,61
1562849349611,236,Login,200,OK,Thread Group 1-1,text,true,,3063,326,1,1,http://api.tournaments.org.in/tos/Login,235,0,103
1562849349849,660,Login,200,OK,Thread Group 1-1,text,true,,3069,326,1,1,http://api.tournaments.org.in/tos/Login,660,0,529
1562849350513,135,Login,200,OK,Thread Group 1-1,text,true,,3069,326,1,1,http://api.tournaments.org.in/tos/Login,135,0,33
1562849350651,203,Login,200,OK,Thread Group 1-1,text,true,,3063,326,1,1,http://api.tournaments.org.in/tos/Login,202,0,63
1562849350856,147,Login,200,OK,Thread Group 1-1,text,true,,3063,326,1,1,http://api.tournaments.org.in/tos/Login,146,0,35
1562849351008,137,Login,200,OK,Thread Group 1-1,text,true,,3070,326,1,1,http://api.tournaments.org.in/tos/Login,136,0,33
1562849351148,139,Login,200,OK,Thread Group 1-1,text,true,,3076,326,1,1,http://api.tournaments.org.in/tos/Login,139,0,34
1562849351291,207,Login,200,OK,Thread Group 1-1,text,true,,3063,326,1,1,http://api.tournaments.org.in/tos/Login,206,0,70
1562849351501,133,Login,200,OK,Thread Group 1-1,text,true,,3063,326,1,1,http://api.tournaments.org.in/tos/Login,133,0,32
1562849351644,244,Login,200,OK,Thread Group 1-1,text,true,,3069,326,1,1,http://api.tournaments.org.in/tos/Login,244,0,90
1562849351891,197,Login,200,OK,Thread Group 1-1,text,true,,3063,326,1,1,http://api.tournaments.org.in/tos/Login,197,0,66
1562849352092,136,Login,200,OK,Thread Group 1-1,text,true,,3069,326,1,1,http://api.tournaments.org.in/tos/Login,136,0,36
1562849352231,198,Login,200,OK,Thread Group 1-1,text,true,,3063,326,1,1,http://api.tournaments.org.in/tos/Login,198,0,66
1562849352432,188,Login,200,OK,Thread Group 1-1,text,true,,3063,326,1,1,http://api.tournaments.org.in/tos/Login,187,0,61
1562849352623,134,Login,200,OK,Thread Group 1-1,text,true,,3063,326,1,1,http://api.tournaments.org.in/tos/Login,132,0,34
1562849352759,207,Login,200,OK,Thread Group 1-1,text,true,,3070,326,1,1,http://api.tournaments.org.in/tos/Login,207,0,38
1562849352969,149,Login,200,OK,Thread Group 1-1,text,true,,3063,326,1,1,http://api.tournaments.org.in/tos/Login,149,0,34
1562849353120,139,Login,200,OK,Thread Group 1-1,text,true,,3070,326,1,1,http://api.tournaments.org.in/tos/Login,139,0,36
1562849353262,208,Login,200,OK,Thread Group 1-1,text,true,,3063,326,1,1,http://api.tournaments.org.in/tos/Login,207,0,64
1562849353474,304,Login,200,OK,Thread Group 1-1,text,true,,3063,326,1,1,http://api.tournaments.org.in/tos/Login,303,0,199
1562849353780,198,Login,200,OK,Thread Group 1-1,text,true,,3063,326,1,1,http://api.tournaments.org.in/tos/Login,198,0,64
1562849353981,151,Login,200,OK,Thread Group 1-1,text,true,,3063,326,1,1,http://api.tournaments.org.in/tos/Login,150,0,46
1562849354135,192,Login,200,OK,Thread Group 1-1,text,true,,3069,326,1,1,http://api.tournaments.org.in/tos/Login,191,0,62
1562849354329,192,Login,200,OK,Thread Group 1-1,text,true,,3063,326,1,1,http://api.tournaments.org.in/tos/Login,192,0,62
1562849354524,192,Login,200,OK,Thread Group 1-1,text,true,,3070,326,1,1,http://api.tournaments.org.in/tos/Login,192,0,62
1562849354719,135,Login,200,OK,Thread Group 1-1,text,true,,3069,326,1,1,http://api.tournaments.org.in/tos/Login,133,0,34
1562849354858,688,Login,200,OK,Thread Group 1-1,text,true,,3069,326,1,1,http://api.tournaments.org.in/tos/Login,687,0,511
1562849355549,154,Login,200,OK,Thread Group 1-1,text,true,,3063,326,1,1,http://api.tournaments.org.in/tos/Login,153,0,52
1562849355707,126,Login,200,OK,Thread Group 1-1,text,true,,3063,326,1,1,http://api.tournaments.org.in/tos/Login,125,0,37
1562849355836,124,Login,200,OK,Thread Group 1-1,text,true,,3076,326,1,1,http://api.tournaments.org.in/tos/Login,123,0,34
1562849355963,154,Login,200,OK,Thread Group 1-1,text,true,,3063,326,1,1,http://api.tournaments.org.in/tos/Login,153,0,34
1562849356120,144,Login,200,OK,Thread Group 1-1,text,true,,3063,326,1,1,http://api.tournaments.org.in/tos/Login,142,0,42
1562849356267,133,Login,200,OK,Thread Group 1-1,text,true,,3069,326,1,1,http://api.tournaments.org.in/tos/Login,133,0,33
1562849356403,131,Login,200,OK,Thread Group 1-1,text,true,,3076,326,1,1,http://api.tournaments.org.in/tos/Login,130,0,34
1562849356537,194,Login,200,OK,Thread Group 1-1,text,true,,3069,326,1,1,http://api.tournaments.org.in/tos/Login,194,0,64
1562849356733,132,Login,200,OK,Thread Group 1-1,text,true,,3076,326,1,1,http://api.tournaments.org.in/tos/Login,131,0,35
1562849356868,197,Login,200,OK,Thread Group 1-1,text,true,,3070,326,1,1,http://api.tournaments.org.in/tos/Login,197,0,63
1562849357068,198,Login,200,OK,Thread Group 1-1,text,true,,3063,326,1,1,http://api.tournaments.org.in/tos/Login,197,0,66
1562849357270,135,Login,200,OK,Thread Group 1-1,text,true,,3063,326,1,1,http://api.tournaments.org.in/tos/Login,135,0,33
1562849357408,138,Login,200,OK,Thread Group 1-1,text,true,,3069,326,1,1,http://api.tournaments.org.in/tos/Login,138,0,34
1562849357548,137,Login,200,OK,Thread Group 1-1,text,true,,3063,326,1,1,http://api.tournaments.org.in/tos/Login,137,0,37
1562849357688,137,Login,200,OK,Thread Group 1-1,text,true,,3063,326,1,1,http://api.tournaments.org.in/tos/Login,136,0,36
1562849357828,224,Login,200,OK,Thread Group 1-1,text,true,,3069,326,1,1,http://api.tournaments.org.in/tos/Login,223,0,69
1562849358055,133,Login,200,OK,Thread Group 1-1,text,true,,3063,326,1,1,http://api.tournaments.org.in/tos/Login,133,0,34
1562849358194,131,Login,200,OK,Thread Group 1-1,text,true,,3070,326,1,1,http://api.tournaments.org.in/tos/Login,131,0,35
1562849358328,166,Login,200,OK,Thread Group 1-1,text,true,,3070,326,1,1,http://api.tournaments.org.in/tos/Login,166,0,47
1562849358497,191,Login,200,OK,Thread Group 1-1,text,true,,3069,326,1,1,http://api.tournaments.org.in/tos/Login,191,0,61
1562849358691,202,Login,200,OK,Thread Group 1-1,text,true,,3069,326,1,1,http://api.tournaments.org.in/tos/Login,202,0,65
1562849358896,138,Login,200,OK,Thread Group 1-1,text,true,,3063,326,1,1,http://api.tournaments.org.in/tos/Login,138,0,34
1562849359037,159,Login,200,OK,Thread Group 1-1,text,true,,3063,326,1,1,http://api.tournaments.org.in/tos/Login,159,0,38
1562849359199,138,Login,200,OK,Thread Group 1-1,text,true,,3063,326,1,1,http://api.tournaments.org.in/tos/Login,138,0,33
1562849359341,135,Login,200,OK,Thread Group 1-1,text,true,,3069,326,1,1,http://api.tournaments.org.in/tos/Login,135,0,31
1562849359479,147,Login,200,OK,Thread Group 1-1,text,true,,3063,326,1,1,http://api.tournaments.org.in/tos/Login,147,0,36
1562849359630,148,Login,200,OK,Thread Group 1-1,text,true,,3063,326,1,1,http://api.tournaments.org.in/tos/Login,147,0,48
1562849359780,188,Login,200,OK,Thread Group 1-1,text,true,,3063,326,1,1,http://api.tournaments.org.in/tos/Login,187,0,32
1562849359971,142,Login,200,OK,Thread Group 1-1,text,true,,3069,326,1,1,http://api.tournaments.org.in/tos/Login,141,0,32
1562849360115,729,Login,200,OK,Thread Group 1-1,text,true,,3063,326,1,1,http://api.tournaments.org.in/tos/Login,729,0,547
1562849360847,201,Login,200,OK,Thread Group 1-1,text,true,,3063,326,1,1,http://api.tournaments.org.in/tos/Login,199,0,65
1562849361051,133,Login,200,OK,Thread Group 1-1,text,true,,3069,326,1,1,http://api.tournaments.org.in/tos/Login,133,0,33
1562849361187,164,Login,200,OK,Thread Group 1-1,text,true,,3063,326,1,1,http://api.tournaments.org.in/tos/Login,163,0,46
1562849361354,196,Login,200,OK,Thread Group 1-1,text,true,,3069,326,1,1,http://api.tournaments.org.in/tos/Login,196,0,62
1562849361554,312,Login,200,OK,Thread Group 1-1,text,true,,3070,326,1,1,http://api.tournaments.org.in/tos/Login,312,0,66
1562849361869,188,Login,200,OK,Thread Group 1-1,text,true,,3069,326,1,1,http://api.tournaments.org.in/tos/Login,188,0,60
1562849362060,242,Login,200,OK,Thread Group 1-1,text,true,,3063,326,1,1,http://api.tournaments.org.in/tos/Login,241,0,97
1562849362305,251,Login,200,OK,Thread Group 1-1,text,true,,3063,326,1,1,http://api.tournaments.org.in/tos/Login,251,0,79
1562849362559,364,Login,200,OK,Thread Group 1-1,text,true,,3063,326,1,1,http://api.tournaments.org.in/tos/Login,364,0,90
1562849362926,198,Login,200,OK,Thread Group 1-1,text,true,,3063,326,1,1,http://api.tournaments.org.in/tos/Login,198,0,59
1562849363127,211,Login,200,OK,Thread Group 1-1,text,true,,3063,326,1,1,http://api.tournaments.org.in/tos/Login,211,0,63
1562849363341,204,Login,200,OK,Thread Group 1-1,text,true,,3063,326,1,1,http://api.tournaments.org.in/tos/Login,203,0,62
1562849363548,264,Login,200,OK,Thread Group 1-1,text,true,,3069,326,1,1,http://api.tournaments.org.in/tos/Login,264,0,88
1562849363815,195,Login,200,OK,Thread Group 1-1,text,true,,3063,326,1,1,http://api.tournaments.org.in/tos/Login,195,0,63
1562849364014,146,Login,200,OK,Thread Group 1-1,text,true,,3063,326,1,1,http://api.tournaments.org.in/tos/Login,145,0,36
1562849364164,160,Login,200,OK,Thread Group 1-1,text,true,,3063,326,1,1,http://api.tournaments.org.in/tos/Login,159,0,49
1562849364326,125,Login,200,OK,Thread Group 1-1,text,true,,3070,326,1,1,http://api.tournaments.org.in/tos/Login,125,0,33
1562849364454,186,Login,200,OK,Thread Group 1-1,text,true,,3063,326,1,1,http://api.tournaments.org.in/tos/Login,185,0,65
1562849364644,129,Login,200,OK,Thread Group 1-1,text,true,,3063,326,1,1,http://api.tournaments.org.in/tos/Login,128,0,34
1562849364777,188,Login,200,OK,Thread Group 1-1,text,true,,3063,326,1,1,http://api.tournaments.org.in/tos/Login,188,0,65
1562849364968,124,Login,200,OK,Thread Group 1-1,text,true,,3069,326,1,1,http://api.tournaments.org.in/tos/Login,124,0,32
1562849365095,523,Login,200,OK,Thread Group 1-1,text,true,,3063,326,1,1,http://api.tournaments.org.in/tos/Login,522,0,37
1562849365621,202,Login,200,OK,Thread Group 1-1,text,true,,3063,326,1,1,http://api.tournaments.org.in/tos/Login,202,0,80
1562849365826,136,Login,200,OK,Thread Group 1-1,text,true,,3069,326,1,1,http://api.tournaments.org.in/tos/Login,136,0,34
1562849365966,190,Login,200,OK,Thread Group 1-1,text,true,,3069,326,1,1,http://api.tournaments.org.in/tos/Login,190,0,63
1562849366159,140,Login,200,OK,Thread Group 1-1,text,true,,3070,326,1,1,http://api.tournaments.org.in/tos/Login,140,0,38
1562849366302,159,Login,200,OK,Thread Group 1-1,text,true,,3063,326,1,1,http://api.tournaments.org.in/tos/Login,159,0,61
1562849366464,196,Login,200,OK,Thread Group 1-1,text,true,,3063,326,1,1,http://api.tournaments.org.in/tos/Login,196,0,63
1562849366663,196,Login,200,OK,Thread Group 1-1,text,true,,3069,326,1,1,http://api.tournaments.org.in/tos/Login,196,0,64
1562849366862,137,Login,200,OK,Thread Group 1-1,text,true,,3070,326,1,1,http://api.tournaments.org.in/tos/Login,137,0,33
1562849367003,137,Login,200,OK,Thread Group 1-1,text,true,,3063,326,1,1,http://api.tournaments.org.in/tos/Login,136,0,34
1562849367143,199,Login,200,OK,Thread Group 1-1,text,true,,3076,326,1,1,http://api.tournaments.org.in/tos/Login,199,0,64
1562849367346,144,Login,200,OK,Thread Group 1-1,text,true,,3069,326,1,1,http://api.tournaments.org.in/tos/Login,144,0,33
1562849367493,145,Login,200,OK,Thread Group 1-1,text,true,,3063,326,1,1,http://api.tournaments.org.in/tos/Login,145,0,33
1562849367641,140,Login,200,OK,Thread Group 1-1,text,true,,3069,326,1,1,http://api.tournaments.org.in/tos/Login,140,0,33
1562849367784,137,Login,200,OK,Thread Group 1-1,text,true,,3069,326,1,1,http://api.tournaments.org.in/tos/Login,137,0,34
1562849367925,212,Login,200,OK,Thread Group 1-1,text,true,,3063,326,1,1,http://api.tournaments.org.in/tos/Login,211,0,65
1562849368140,136,Login,200,OK,Thread Group 1-1,text,true,,3063,326,1,1,http://api.tournaments.org.in/tos/Login,135,0,34
1562849368278,141,Login,200,OK,Thread Group 1-1,text,true,,3063,326,1,1,http://api.tournaments.org.in/tos/Login,140,0,38
1562849368422,133,Login,200,OK,Thread Group 1-1,text,true,,3063,326,1,1,http://api.tournaments.org.in/tos/Login,133,0,32
1562849368558,197,Login,200,OK,Thread Group 1-1,text,true,,3069,326,1,1,http://api.tournaments.org.in/tos/Login,197,0,64
1562849368759,164,Login,200,OK,Thread Group 1-1,text,true,,3069,326,1,1,http://api.tournaments.org.in/tos/Login,164,0,49
1562849368926,136,Login,200,OK,Thread Group 1-1,text,true,,3063,326,1,1,http://api.tournaments.org.in/tos/Login,135,0,35
1562849369065,134,Login,200,OK,Thread Group 1-1,text,true,,3063,326,1,1,http://api.tournaments.org.in/tos/Login,133,0,32
1562849369202,199,Login,200,OK,Thread Group 1-1,text,true,,3063,326,1,1,http://api.tournaments.org.in/tos/Login,198,0,64
1562849369404,146,Login,200,OK,Thread Group 1-1,text,true,,3070,326,1,1,http://api.tournaments.org.in/tos/Login,146,0,34
1562849369553,351,Login,200,OK,Thread Group 1-1,text,true,,3069,326,1,1,http://api.tournaments.org.in/tos/Login,351,0,204
1562849369909,140,Login,200,OK,Thread Group 1-1,text,true,,3063,326,1,1,http://api.tournaments.org.in/tos/Login,140,0,36
1562850064951,335,Login,200,OK,Thread Group 1-1,text,true,,3063,326,1,1,http://api.tournaments.org.in/tos/Login,335,0,203
1562850065294,200,Login,200,OK,Thread Group 1-1,text,true,,3063,326,1,1,http://api.tournaments.org.in/tos/Login,200,0,77
1562850065497,148,Login,200,OK,Thread Group 1-1,text,true,,3063,326,1,1,http://api.tournaments.org.in/tos/Login,148,0,34
1562850065648,130,Login,200,OK,Thread Group 1-1,text,true,,3063,326,1,1,http://api.tournaments.org.in/tos/Login,130,0,34
